<?xml version="1.0" standalone="no"?>
<!DOCTYPE svg PUBLIC "-//W3C//DTD SVG 1.1//EN" "http://www.w3.org/Graphics/SVG/1.1/DTD/svg11.dtd" >
<svg xmlns="http://www.w3.org/2000/svg">
<metadata>Generated by IcoMoon</metadata>
<defs>
<font id="icomoon" horiz-adv-x="1024">
<font-face units-per-em="1024" ascent="960" descent="-64" />
<missing-glyph horiz-adv-x="1024" />
<glyph unicode="&#x20;" horiz-adv-x="512" d="" />
<glyph unicode="&#xe900;" glyph-name="calendar" d="M963.621 791.223c-12.49 13.521-30.31 21.959-50.101 21.959-0.528 0-1.055-0.006-1.58-0.018l0.078 0.001h-72.594v55.003c0.009 0.455 0.013 0.991 0.013 1.528 0 24.855-10.396 47.282-27.077 63.169l-0.036 0.034c-16.232 16.724-38.921 27.102-64.034 27.102-0.245 0-0.49-0.001-0.735-0.003h-36.533c-0.455 0.009-0.991 0.013-1.528 0.013-24.855 0-47.282-10.396-63.169-27.077l-0.034-0.036c-16.724-16.232-27.102-38.921-27.102-64.034 0-0.245 0.001-0.49 0.003-0.735v0.038-55.113h-218.807v55.113c0.009 0.455 0.013 0.991 0.013 1.528 0 24.855-10.396 47.282-27.077 63.169l-0.036 0.034c-16.232 16.724-38.921 27.102-64.034 27.102-0.245 0-0.49-0.001-0.735-0.003h-36.533c-0.455 0.009-0.991 0.013-1.528 0.013-24.855 0-47.282-10.396-63.169-27.077l-0.034-0.036c-16.724-16.232-27.102-38.921-27.102-64.034 0-0.245 0.001-0.49 0.003-0.735v0.038-55.113h-70.985c-0.274 0.004-0.598 0.006-0.922 0.006-19.97 0-37.972-8.424-50.647-21.913l-0.034-0.036c-12.961-12.719-20.994-30.421-20.994-49.999 0-0.191 0.001-0.382 0.002-0.572v0.029-729.49c-0.004-0.274-0.006-0.598-0.006-0.922 0-19.97 8.424-37.972 21.913-50.647l0.036-0.034c12.709-13.525 30.711-21.949 50.681-21.949 0.324 0 0.648 0.002 0.971 0.007l-0.049-0.001h802.779c40.306 0.667 72.805 33.166 73.471 73.409l0.001 0.063v729.563c-0.926 19.955-9.454 37.755-22.732 50.71l-0.016 0.015zM273.591 10.24h-164.571v164.571h164.571zM273.591 211.383h-164.571v181.76h164.571zM273.591 430.007h-164.571v164.279h164.571zM260.462 690.651c-3.235 3.225-5.237 7.686-5.237 12.614 0 0.181 0.003 0.361 0.008 0.541l-0.001-0.026v164.571c-0.002 0.11-0.004 0.24-0.004 0.37 0 9.897 8.023 17.92 17.92 17.92 0.13 0 0.26-0.001 0.389-0.004h36.552c0.11 0.002 0.24 0.004 0.37 0.004 9.897 0 17.92-8.023 17.92-17.92 0-0.13-0.001-0.26-0.004-0.389v0.019-164.571c0.002-0.11 0.004-0.24 0.004-0.37 0-9.897-8.023-17.92-17.92-17.92-0.13 0-0.26 0.001-0.389 0.004h-36.552c-5.060 0.186-9.632 2.136-13.151 5.249l0.022-0.019zM492.215 10.423h-181.906v164.571h182.857v-164.571zM492.215 211.566h-181.906v181.577h182.857v-181.76zM492.215 430.19h-181.906v164.096h182.857v-164.571zM711.643 10.386h-182.857v164.571h182.857zM711.643 211.529h-182.857v181.614h182.857zM711.643 430.153h-182.857v164.133h182.857zM698.514 690.651c-3.235 3.225-5.237 7.686-5.237 12.614 0 0.181 0.003 0.361 0.008 0.541l-0.001-0.026v164.571c-0.002 0.11-0.004 0.24-0.004 0.37 0 9.897 8.023 17.92 17.92 17.92 0.13 0 0.26-0.001 0.389-0.004h36.552c0.11 0.002 0.24 0.004 0.37 0.004 9.897 0 17.92-8.023 17.92-17.92 0-0.13-0.001-0.26-0.004-0.389v0.019-164.571c0.002-0.11 0.004-0.24 0.004-0.37 0-9.897-8.023-17.92-17.92-17.92-0.13 0-0.26 0.001-0.389 0.004h-36.552c-0.153-0.005-0.334-0.007-0.515-0.007-4.928 0-9.389 2.002-12.614 5.237v0zM911.909 10.423h-164.571v164.571h164.571v-164.571zM911.909 211.566h-164.571v181.577h164.571v-181.76zM911.909 430.19h-164.571v164.096h164.571v-164.571z" />
<glyph unicode="&#xe901;" glyph-name="delete" d="M176.674 44.578c-0.006-0.429-0.009-0.936-0.009-1.443 0-62.398 50.583-112.981 112.981-112.981 0.507 0 1.014 0.003 1.52 0.010l-0.077-0.001h457.728c0.429-0.006 0.936-0.009 1.443-0.009 62.398 0 112.981 50.583 112.981 112.981 0 0.507-0.003 1.014-0.010 1.52l0.001-0.077v686.729h-686.558zM920.474 902.793h-200.26l-57.207 57.207h-286.071l-57.207-57.207h-200.26v-114.449h801.007z" />
<glyph unicode="&#xe902;" glyph-name="done" d="M512 960c-282.77 0-512-229.23-512-512s229.23-512 512-512c282.77 0 512 229.23 512 512v0c-0.856 282.425-229.575 511.144-511.918 512h-0.082zM793.6 640l-327.68-368.64c-3.775-4.387-9.195-7.267-15.293-7.676l-0.067-0.004c-4.949 0.104-9.43 2.030-12.815 5.133l0.015-0.013-204.8 163.84c-4.41 3.693-7.194 9.201-7.194 15.36 0 11.043 8.952 19.994 19.994 19.994 4.884 0 9.359-1.751 12.831-4.66l-0.031 0.025 189.44-151.040 314.88 353.28c3.741 4.347 9.249 7.082 15.396 7.082 4.854 0 9.31-1.706 12.801-4.551l-0.037 0.029c4.876-3.327 8.036-8.857 8.036-15.125 0-5.104-2.095-9.719-5.473-13.032l-0.003-0.003z" />
<glyph unicode="&#xe903;" glyph-name="edit" d="M0 149.259v-213.34h213.34l629.749 629.83-213.34 213.34zM1007.421 729.919c10.351 10.347 16.753 24.644 16.753 40.436s-6.402 30.088-16.753 40.436v0l-132.873 132.63c-10.347 10.351-24.644 16.753-40.436 16.753s-30.088-6.402-40.436-16.753v0l-103.678-104.082 213.34-213.34 104.001 104.001z" />
<glyph unicode="&#xe904;" glyph-name="invoice" d="M315.567 528.621c-9.929-7.57-22.441-12.221-36.028-12.487l-0.061-0.001v84.218c14.845-4.298 27.804-10.632 39.37-18.805l-0.408 0.274c6.687-6.83 10.826-16.177 10.864-26.492v-0.008c-0.807-10.809-5.951-20.279-13.678-26.776l-0.059-0.048zM248.532 748.931c-12.503-1.029-23.78-5.561-33.049-12.601l0.156 0.113c-7.283-6.618-11.986-15.965-12.485-26.413l-0.003-0.086c-0.031-0.533-0.049-1.157-0.049-1.784 0-9.063 3.685-17.265 9.638-23.19l0.001-0.001c10.18-8.205 22.229-14.568 35.371-18.355l0.719-0.177v82.42zM983.24 570.755v-519.168c0-0.067 0-0.146 0-0.225 0-63.713-51.649-115.362-115.362-115.362-0.079 0-0.158 0-0.237 0h-714.59c-0.067 0-0.146 0-0.225 0-63.713 0-115.362 51.649-115.362 115.362 0 0.079 0 0.158 0 0.237v-0.012 792.826c0 0.007 0 0.016 0 0.025 0 63.823 51.739 115.562 115.562 115.562 0.009 0 0.018 0 0.026 0h447.062c2.202 0.154 4.773 0.242 7.364 0.242 35.464 0 67.081-16.469 87.62-42.177l0.173-0.224 243.937-247.259c27.153-21.026 44.464-53.633 44.464-90.282 0-3.386-0.148-6.738-0.437-10.050l0.030 0.429zM468.742 686.342h172.107c0.292-0.009 0.635-0.014 0.979-0.014 19.179 0 34.767 15.376 35.11 34.473v26.556c-0.456 19.15-16.089 34.5-35.306 34.5-0.276 0-0.55-0.003-0.824-0.009l0.041 0.001h-171.682v-95.482zM248.532 608.119v-91.96c-31.73 5.696-59.413 20.107-81.28 40.639l0.085-0.079-34.716-40.56c31.118-27.659 70.785-46.334 114.575-51.625l1.012-0.1v-34.167h29.696v34.491c29.801 0.202 57.086 10.811 78.44 28.37l-0.216-0.173c18.272 16.626 29.696 40.502 29.696 67.047 0 0.004 0 0.009 0 0.013v-0.001c0.157 1.829 0.246 3.958 0.246 6.108 0 22.401-9.711 42.534-25.153 56.419l-0.069 0.061c-22.491 16.742-49.444 28.838-78.73 34.306l-1.192 0.185h-1.424v88.963c25.57-4.042 48.281-13.978 67.447-28.377l-0.388 0.279 31.294 43.732c-27.699 19.38-61.492 31.908-98.035 34.457l-0.618 0.035v26.449h-29.721v-23.627c-28.201-0.456-53.85-11.020-73.565-28.214l0.136 0.117c-18.257-16.612-29.677-40.463-29.696-66.981v-0.003c-0.014-0.575-0.022-1.253-0.022-1.932 0-23.665 9.548-45.099 25.002-60.661l-0.005 0.005c21.809-15.982 47.839-27.608 76.076-33.026l1.199-0.191zM890.955 101.713c-0.456 19.15-16.089 34.5-35.306 34.5-0.276 0-0.55-0.003-0.824-0.009l0.041 0.001h-692.524c-0.226 0.005-0.491 0.009-0.758 0.009-18.635 0-33.742-15.107-33.742-33.742 0-0.266 0.003-0.532 0.009-0.797l-0.001 0.039v-26.499c0.263-18.942 15.549-34.228 34.466-34.491h692.599c19.323 0.137 35.058 15.314 36.086 34.4l0.004 0.092zM890.955 317.552c-0.456 19.15-16.089 34.5-35.306 34.5-0.276 0-0.55-0.003-0.824-0.009l0.041 0.001h-692.524c-0.226 0.005-0.491 0.009-0.758 0.009-18.635 0-33.742-15.107-33.742-33.742 0-0.266 0.003-0.532 0.009-0.797l-0.001 0.039v-26.499c0.277-18.931 15.558-34.203 34.466-34.466h692.599c19.323 0.137 35.058 15.314 36.086 34.4l0.004 0.092zM890.955 533.392c-0.456 19.15-16.089 34.5-35.306 34.5-0.276 0-0.55-0.003-0.824-0.009l0.041 0.001h-386.023v-95.157h386.348c19.323 0.137 35.058 15.314 36.086 34.4l0.004 0.092-0.325 26.174z" />
<glyph unicode="&#xe905;" glyph-name="location" d="M854.016 705.416c-5.687 16.527-11.457 30.147-18.013 43.307l0.936-2.076c-52.316 126.228-174.545 213.401-317.135 213.401-2.013 0-4.023-0.017-6.028-0.052l0.302 0.004c-1.371 0.020-2.99 0.031-4.611 0.031-180.741 0-329.014-139.010-343.737-315.948l-0.084-1.252v-44.092c-0.005-0.559-0.008-1.219-0.008-1.881 0-8.888 0.517-17.655 1.523-26.273l-0.099 1.048c12.8-100.984 93.877-209.077 153.6-311.477 64-109.387 132.277-216.064 197.692-324.156 41.231 69.692 82.492 140.8 122.308 209.077 11.384 19.908 24.094 39.816 34.123 59.723 7.108 12.8 21.323 25.6 27.106 36.984 64 118.031 169.231 237.508 169.231 355.569v48.339c-4.408 22.86-10.312 42.879-17.889 62.055l0.812-2.331zM516.939 486.4c-0.364-0.004-0.795-0.006-1.226-0.006-54.745 0-101.235 35.341-117.902 84.452l-0.258 0.877c-2.723 8.841-4.292 19.003-4.292 29.532 0 0.619 0.005 1.237 0.016 1.853l-0.001-0.093v28.431c1.15 64.783 53.937 116.859 118.887 116.859 2.676 0 5.332-0.088 7.965-0.263l-0.357 0.019c0.065 0 0.143 0 0.22 0 71.408 0 129.295-57.887 129.295-129.295 0-0.54-0.003-1.079-0.010-1.618l0.001 0.082c-0.495-72.362-59.27-130.832-131.702-130.832-0.202 0-0.404 0-0.606 0.001h0.031z" />
<glyph unicode="&#xe906;" glyph-name="mail" d="M921.6 851.394h-819.2c-0.39 0.005-0.851 0.009-1.312 0.009-55.834 0-101.097-45.263-101.097-101.097 0-0.461 0.003-0.922 0.009-1.381l-0.001 0.070v-614.4c-0.005-0.39-0.009-0.851-0.009-1.312 0-55.834 45.263-101.097 101.097-101.097 0.461 0 0.922 0.003 1.381 0.009l-0.070-0.001h819.2c0.39-0.005 0.851-0.009 1.312-0.009 55.834 0 101.097 45.263 101.097 101.097 0 0.461-0.003 0.922-0.009 1.381l0.001-0.070v614.4c0.005 0.39 0.009 0.851 0.009 1.312 0 55.834-45.263 101.097-101.097 101.097-0.461 0-0.922-0.003-1.381-0.009l0.070 0.001zM921.6 646.594l-409.6-256-409.6 256v102.4l409.6-256 409.6 256z" />
<glyph unicode="&#xe907;" glyph-name="member" d="M504.281 491.739c0 0 2.573 0 2.573 0 56.603 0 102.915 48.884 100.342 105.487 0 0 0 2.573 0 2.573 0 56.603-48.884 102.915-105.487 100.342 0 0-2.573 0-2.573 0-56.603 0-102.915-48.884-100.342-105.487 0 0 0-2.573 0-2.573 0-56.603 48.884-100.342 105.487-100.342zM504.281 424.844c-69.467 0-208.402-38.593-208.402-108.060 46.312-69.467 126.070-110.633 208.402-110.633 84.905 0 162.090 41.166 208.402 110.633 0 69.467-138.935 108.060-208.402 108.060zM512 960c-283.015 0-512-228.985-512-512s228.985-512 512-512c283.015 0 512 228.985 512 512s-228.985 512-512 512zM504.281 108.382c-192.965 0-349.91 156.945-349.91 347.337 0 192.965 156.945 349.91 349.91 349.91s347.337-156.945 349.91-349.91c-2.573-190.392-159.518-347.337-349.91-347.337z" />
<glyph unicode="&#xe908;" glyph-name="phone" d="M967.097 248.903c-74.224 1.556-144.913 14.453-211.126 37.019l4.916-1.455c-4.801 1.406-10.317 2.215-16.021 2.215-15.877 0-30.29-6.266-40.901-16.46l0.020 0.019-128-128c-162.46 85.057-291.818 214.405-374.586 372.046l-2.301 4.81 128 128c12.572 6.758 20.975 19.819 20.975 34.843 0 8.231-2.523 15.874-6.837 22.196l0.088-0.136c-16.027 59.099-26.275 127.402-28.419 197.744l-0.033 1.353c0.14 1.434 0.219 3.1 0.219 4.785 0 28.903-23.431 52.334-52.334 52.334-1.675 0-3.331-0.079-4.966-0.233l0.209 0.016h-199.097c-1.435 0.14-3.102 0.219-4.788 0.219-28.903 0-52.334-23.431-52.334-52.334 0-1.686 0.080-3.353 0.236-4.998l-0.016 0.21c0.575-533.881 433.215-966.521 967.041-967.097h0.056c1.435-0.14 3.102-0.219 4.788-0.219 28.903 0 52.334 23.431 52.334 52.334 0 1.686-0.080 3.353-0.236 4.998l0.016-0.21v199.097c0.14 1.435 0.219 3.102 0.219 4.788 0 28.903-23.431 52.334-52.334 52.334-1.686 0-3.353-0.080-4.998-0.236l0.21 0.016zM910.226 448h113.774c-0.118 132.982-50.466 254.181-133.093 345.669l0.402-0.452c-92.825 102.608-226.466 166.801-375.101 166.801-1.48 0-2.958-0.006-4.435-0.019l0.227 0.002v-113.774c45.556-0.213 89.279-7.747 130.154-21.485l-2.921 0.852c158.735-53.549 271.002-201.083 271.002-374.838 0-0.969-0.003-1.937-0.010-2.904l0.001 0.149zM682.677 448h113.774c-0.469 156.909-127.542 283.982-284.406 284.451h-0.045v-113.774c1.931 0.081 4.197 0.128 6.474 0.128 90.757 0 164.331-73.573 164.331-164.331 0-2.277-0.046-4.543-0.138-6.797l0.010 0.323z" />
<glyph unicode="&#xe909;" glyph-name="print" d="M254.923 155.504v-191.068h510.162v318.727h-510.162zM318.727 219.333h382.556v-63.829h-382.556zM318.727 92.094h382.556v-63.829h-382.556zM765.086 729.547v191.068h-510.162v-318.727h510.162zM892.35 729.495h-63.829v-191.409h-637.453v191.409h-63.409c-68.475-4.786-122.844-59.137-127.634-127.171l-0.025-0.435v-318.753c4.815-68.469 59.184-122.82 127.226-127.582l0.433-0.024h63.409v191.462h637.453v-191.462h63.829c68.475 4.786 122.844 59.137 127.634 127.171l0.025 0.435v318.753c-4.815 68.469-59.184 122.82-127.226 127.582l-0.433 0.024z" />
<glyph unicode="&#xe90a;" glyph-name="table" d="M0 789.333h1019.501v-204.645h-1019.501v204.645zM0 543.76h1019.501v-204.645h-1019.501v204.645zM0 298.217h1019.501v-204.645h-1019.501v204.645z" />
<glyph unicode="&#xe90b;" glyph-name="time" horiz-adv-x="1013" d="M945.711 705.247c-44.81 77.698-107.174 140.696-181.934 184.975l-2.342 1.284c-71.569 43.047-157.952 68.51-250.282 68.51-1.361 0-2.72-0.006-4.078-0.017l0.208 0.001c-1.248 0.011-2.723 0.018-4.2 0.018-92.489 0-179.026-25.485-252.971-69.816l2.237 1.243c-152.057-90.435-252.36-253.896-252.36-440.785 0-1.115 0.004-2.229 0.011-3.343l-0.001 0.172c-0.018-1.576-0.028-3.438-0.028-5.302 0-92.575 25.207-179.262 69.131-253.574l-1.269 2.32c44.873-77.721 107.318-140.724 182.166-184.973l2.35-1.285c71.357-43.085 157.535-68.576 249.668-68.576 1.577 0 3.152 0.007 4.725 0.022l-0.24-0.002c1.541-0.018 3.361-0.028 5.184-0.028 91.899 0 177.843 25.497 251.144 69.803l-2.175-1.22c77.102 45.562 139.465 108.561 182.977 183.824l1.298 2.435c42.508 72.125 67.619 158.903 67.619 251.547 0 1.761-0.009 3.52-0.027 5.277l0.002-0.268c0.056 2.77 0.088 6.035 0.088 9.308 0 91.517-24.846 177.23-68.161 250.763l1.261-2.314zM818.155 265.377c-32.138-54.846-76.251-99.458-128.964-131.256l-1.657-0.927c-51.58-30.862-113.784-49.112-180.25-49.112s-128.67 18.249-181.875 50.010l1.625-0.899c-54.37 32.725-98.483 77.338-129.68 130.45l-0.941 1.733c-30.556 51.364-48.618 113.253-48.618 179.36 0 0.968 0.004 1.935 0.012 2.901l-0.001-0.148c-0.007 0.8-0.010 1.746-0.010 2.693 0 66.107 18.062 127.995 49.519 181l-0.901-1.641c32.138 54.846 76.251 99.458 128.964 131.256l1.657 0.927c51.58 30.862 113.784 49.112 180.25 49.112s128.67-18.249 181.875-50.010l-1.625 0.899c54.37-32.725 98.483-77.338 129.68-130.45l0.941-1.733c30.556-51.364 48.618-113.253 48.618-179.36 0-0.968-0.004-1.935-0.012-2.901l0.001 0.148c-0.667-67.012-18.614-129.691-49.587-183.977l0.98 1.864zM570.071 704.225h-42.539c-0.207 0.007-0.45 0.012-0.694 0.012-5.667 0-10.797-2.301-14.506-6.020v0c-3.721-3.773-6.018-8.957-6.018-14.678 0-0.226 0.004-0.451 0.011-0.676l-0.001 0.033v-234.325h-146.844c-0.207 0.007-0.45 0.012-0.694 0.012-5.667 0-10.797-2.301-14.506-6.020v0c-3.721-3.773-6.018-8.957-6.018-14.678 0-0.226 0.004-0.451 0.011-0.676l-0.001 0.033v-42.96c-0.006-0.192-0.010-0.417-0.010-0.643 0-5.721 2.298-10.905 6.021-14.681l-0.002 0.002c3.71-3.719 8.839-6.020 14.507-6.020 0.244 0 0.487 0.004 0.73 0.013l-0.035-0.001h211.613c0.207-0.007 0.45-0.012 0.694-0.012 5.667 0 10.797 2.301 14.506 6.020v0c3.721 3.773 6.018 8.957 6.018 14.678 0 0.226-0.004 0.451-0.011 0.676l0.001-0.033v298.434c0.006 0.192 0.010 0.417 0.010 0.643 0 5.721-2.298 10.905-6.021 14.681l0.002-0.002c-4.302 3.733-9.958 6.008-16.145 6.008-0.027 0-0.055 0-0.082 0h0.004z" />
<glyph unicode="&#xe90c;" glyph-name="upload" d="M512 833.58c-176.988 0-322.37-145.383-322.37-322.37s145.383-322.37 322.37-322.37 322.37 145.383 322.37 322.37-145.383 322.37-322.37 322.37zM634.206 367.934h-235.984v33.712h235.984v-33.712zM566.782 536.494v-101.136h-101.136v101.136h-67.424l117.992 117.992 117.992-117.992h-67.424z" />
<glyph unicode="&#xe90d;" glyph-name="user" d="M512 960c-282.713 0-512-229.287-512-512s229.287-512 512-512 512 229.287 512 512-229.287 512-512 512zM509.774 114.087c-111.304 0-215.93 55.652-280.487 149.148 0 93.496 186.991 144.696 280.487 144.696s280.487-51.2 280.487-144.696c-62.33-91.27-166.957-149.148-280.487-149.148zM509.774 775.235c75.687 2.226 138.017-60.104 140.243-135.791 0-2.226 0-2.226 0-4.452 2.226-75.687-57.878-138.017-133.565-140.243-2.226 0-4.452 0-4.452 0-75.687-2.226-138.017 57.878-140.243 133.565 0 4.452 0 6.678 0 6.678-2.226 75.687 57.878 138.017 133.565 140.243 2.226 0 2.226 0 4.452 0z" />
<glyph unicode="&#xe90e;" glyph-name="website" horiz-adv-x="1029" d="M301.185 666.678h191.277v-196.408h-212.226c0.079 69.614 7.706 137.404 22.106 202.65l-1.156-6.242zM301.185 229.322h191.277v196.317h-212.226c0.079-69.614 7.706-137.404 22.106-202.65l-1.156 6.242zM492.462 708.577v251.423c-75.904-15.727-144.035-112.611-180.711-251.423zM769.966 229.322h209.494c27.839 57.406 45.011 124.603 47.164 195.578l0.018 0.739h-238.337c-0.549-69.784-7.153-137.648-19.313-203.566l1.097 7.158zM769.966 666.678c12.035-58.393 19.598-126.086 20.933-195.304l0.017-1.104h238.337c-2.147 71.742-19.31 138.974-48.432 199.354l1.281-2.946h-212.135zM759.491 708.577h196.408c-69.37 117.173-180.948 203.138-313.318 237.55l-3.564 0.787c58.097-65.199 100.318-145.788 119.838-234.875l0.636-3.462zM492.311-64v251.423h-180.651c36.677-138.812 104.747-235.696 180.711-251.423zM714.981 708.577c-36.677 138.812-102.136 238.337-180.62 251.423v-251.423zM746.405 425.639h-212.044v-196.408h191.277c13.243 59.004 20.87 126.794 20.949 196.351v0.057zM0 425.639c2.147-71.742 19.31-138.974 48.432-199.354l-1.281 2.946h209.494c-12.035 58.393-19.598 126.086-20.933 195.304l-0.017 1.104zM267.181 187.302h-196.469c69.37-117.173 180.948-203.138 313.318-237.55l3.564-0.787c-58.092 65.235-100.296 145.868-119.779 234.999l-0.634 3.459zM759.552 187.302c-19.512-92.698-61.846-173.423-120.871-238.784l0.397 0.446c136.27 34.443 248.1 120.641 315.589 235.946l1.293 2.391h-196.469zM267.181 708.577c19.494 92.694 61.808 173.418 120.812 238.786l-0.399-0.449c-135.827-35.439-247.326-121.331-315.577-235.971l-1.305-2.367zM725.638 666.678h-191.277v-196.408h212.135c-0.079 69.614-7.706 137.404-22.106 202.65l1.156-6.242zM47.333 666.678c-27.9-57.423-45.125-124.647-47.315-195.657l-0.018-0.751h238.337c0 0.292-0.001 0.638-0.001 0.983 0 69.236 7.632 136.689 22.1 201.564l-1.15-6.139h-212.135zM534.361 187.423v-251.423c78.575 15.727 144.035 112.611 180.711 251.423h-180.711z" />
<glyph unicode="&#xe913;" glyph-name="athletics" d="M988.703 953.487c-19.517 0-35.318-15.79-35.318-35.318v-635.279h-247.163v635.279c0 19.528-15.79 35.318-35.308 35.318s-35.308-15.79-35.308-35.318v-635.279h-247.183v635.279c0 19.528-15.8 35.318-35.308 35.318-19.517 0-35.318-15.79-35.318-35.318v-635.279h-247.173v635.279c0 19.528-15.79 35.318-35.318 35.318-19.517 0-35.308-15.79-35.308-35.318v-940.349c0-19.517 15.79-35.308 35.318-35.308 19.507 0 35.318 15.79 35.318 35.308v234.445h247.163v-234.445c0-19.517 15.79-35.308 35.318-35.308 19.517 0 35.318 15.79 35.318 35.308v234.445h247.163v-234.445c0-19.517 15.79-35.308 35.318-35.308 19.507 0 35.297 15.79 35.297 35.308v234.445h247.173v-234.445c0-19.517 15.79-35.308 35.308-35.308 19.507 0 35.308 15.79 35.308 35.308v940.349c0.010 19.528-15.78 35.318-35.297 35.318v0zM138.752 141.517c-3.441-1.628-5.335-5.407-4.516-9.134l3.451-15.749c0.553-2.458 2.14-4.485 4.372-5.591 2.243-1.106 4.864-1.106 7.107-0.031l25.723 12.237h0.563v-124.652c0-11.448 9.308-20.756 20.756-20.756s20.756 9.308 20.756 20.756v162.744h-35.584l-42.629-19.825zM559.421 11.54h-51.517v0.594l16.957 14.1c26.511 23.736 48.824 48.271 48.824 79.073 0 33.3-22.856 57.58-64.379 57.58-21.238 0-39.997-6.205-53.647-14.541-3.84-2.314-5.417-7.035-3.789-11.213l5.233-13.271c1.004-2.478 3.031-4.444 5.591-5.304 2.55-0.86 5.335-0.584 7.66 0.799 8.52 5.028 18.862 9.093 30.208 9.093 21.207 0 30.239-11.858 30.239-26.829-0.594-21.453-20.070-42.066-60.14-77.937l-20.685-18.719c-1.925-1.72-3.031-4.198-3.031-6.789v-12.698c0-5.1 4.096-9.206 9.206-9.206h103.281c9.759 0 17.664 7.895 17.664 17.623-0.010 9.748-7.916 17.644-17.674 17.644v0zM862.597 75.51v0.553c22.579 7.936 33.587 23.183 33.587 42.66 0 25.098-21.719 45.722-60.979 45.722-16.62 0-32.379-3.338-44.134-7.721-7.352-2.744-11.346-10.65-9.206-18.196 1.28-4.526 4.342-8.315 8.448-10.527 4.137-2.202 8.97-2.652 13.414-1.198 6.758 2.13 14.418 3.758 21.862 3.758 18.063 0 27.095-8.172 27.095-19.18 0-15.555-18.34-20.9-32.758-21.176h-1.28c-8.489 0-15.38-6.892-15.38-15.411 0-8.489 6.892-15.38 15.38-15.38h2.14c18.934 0 36.997-8.172 36.997-26.235 0-13.834-11.305-24.596-33.618-24.596-8.704 0-17.418 1.833-24.904 4.137-4.762 1.454-9.902 0.922-14.285-1.454-4.342-2.417-7.557-6.482-8.858-11.274-2.109-7.68 2.058-15.677 9.544-18.412 10.967-3.963 25.457-6.861 41.585-6.861 46.592 0 75.1 23.736 75.1 56.177 0.041 23.992-17.746 40.653-39.752 44.616v0z" />
<glyph unicode="&#xe914;" glyph-name="badminton" d="M937.912 146.156l-198.154 198.113c-54.61 54.62-91.965 124.088-107.438 199.782v0.051c29.194 97.843-2.14 217.754-89.887 305.521-119.941 119.9-300.042 134.912-401.49 33.444-101.478-101.489-86.456-281.59 33.454-401.51 87.757-87.736 207.606-119.050 305.428-89.917l0.133-0.041c75.684-15.411 145.152-52.767 199.762-107.377l198.124-198.093c16.599-16.579 43.448-16.579 60.058 0 7.956 7.956 12.431 18.749 12.431 30.013s-4.465 22.057-12.421 30.013v0zM149.228 716.442h108.636v-101.714h-85.914c-15.657 33.577-23.327 68.516-22.723 101.714v0zM307.548 716.442l101.898 0.010 0.061-56.75c0.031-15.012 0.031-30.003 0.072-44.954l-102.031-0.020v101.714zM459.213 659.773l-0.061 56.678h85.74c15.657-33.567 23.337-68.516 22.712-101.714h-108.329c-0.031 14.991-0.031 29.983-0.061 45.036v0zM514.775 766.157h-55.665l-0.061 55.736c10.322-7.813 20.347-16.292 29.86-25.795 9.533-9.533 18.033-19.599 25.866-29.942v0zM409.324 852.050l0.092-85.893-101.857-0.010v108.636c33.229 0.614 68.178-7.055 101.765-22.733v0zM257.853 867.277v-101.12h-101.11c7.311 23.808 19.794 45.466 37.724 63.386 17.92 17.91 39.567 30.423 63.386 37.734v0zM202.066 565.023h55.798v-55.777c-10.322 7.844-20.419 16.343-29.932 25.866-9.513 9.513-18.022 19.589-25.866 29.911v0zM307.548 479.13v85.893l102.093 0.020c0.061-37.816 0.102-74.291 0.102-108.626-33.362-0.696-68.465 6.973-102.195 22.712v0zM459.448 464.067c0 32.082-0.041 66.028-0.102 100.977h100.762c-7.322-23.818-19.804-45.466-37.734-63.386-17.787-17.797-39.322-30.259-62.925-37.591v0zM380.365 262.031l55.747-117.842 30.218 14.285-55.706 117.873-30.259-14.316zM89.405 219.73c0-0.020-0.031 0.010-0.061 0-12.882-6.083 5.704-72.284 41.411-147.825 35.707-75.551 75.141-131.86 87.941-125.809v-0.010l188.16 184.238-55.736 117.883-261.714-28.477z" />
<glyph unicode="&#xe915;" glyph-name="basketball" d="M553.431 877.281c11.581 15.35 9.718 47.913 8.069 76.636-0.072 1.239-0.133 2.447-0.205 3.686-16.23 1.536-32.666 2.396-49.295 2.396-63.734 0-124.713-11.745-181.002-33.024 40.151-19.292 102.308-52.5 171.387-101.581 23.562 20.285 41.339 39.014 51.046 51.886v0zM812.861 585.134c-25.242-2.857-46.52-6.994-64.727-12.8 87.009-151.91 120.934-343.839 129.239-482.888 86.2 87.818 140.943 206.561 146.115 338.074-59.392 73.011-138.076 165.847-210.627 157.614v0zM295.588 716.257c61.133 12.728 118.579 43.489 164.372 75.981-95.539 65.802-175.227 99.953-191.078 106.445-99.113-53.576-178.432-138.957-224.573-242.391 59.976 23.89 124.928 36.055 188.733 47.903 20.644 3.83 41.974 7.793 62.546 12.063v0zM649.482 701.379c5.448-5.478 10.895-11.069 16.302-16.742 19.948-20.941 38.042-43.837 54.63-68.065 24.166 9.124 52.623 15.596 86.671 19.446 80.251 9.083 151.603-54.487 212.849-124.467-13.138 106.086-58.634 202.097-126.433 277.832-37.007-4.454-78.254-12.022-120.31-24.566-27.587-8.243-71.516-30.638-123.709-63.437v0zM582.103 436.961c21.012 71.127 45.332 122.399 92.457 155.689-14.131 20.306-29.368 39.363-45.855 56.668-7.619 8.018-15.34 15.749-23.071 23.347-189.092-128.707-448.102-365.117-471.644-569.958 78.612-86.026 186.204-145.009 307.323-161.741 44.104 87.798 85.606 266.301 110.295 372.46 11.837 50.975 22.077 95.007 30.495 123.535v0zM367.729 549.755c65.915 60.754 135.547 115.231 199.229 159.007-21.238 18.78-42.516 36.096-63.427 51.968-52.89-39.762-122.143-78.92-197.519-94.587-21.105-4.403-42.721-8.407-63.621-12.298-80.517-14.95-157.809-29.43-222.812-65.7-12.657-44.554-19.579-91.535-19.579-140.145 0-108.759 34.017-209.521 91.832-292.444 37.458 148.306 165.929 292.874 275.896 394.199v0zM611.052 738.007c60.918 38.84 113.439 65.69 147.507 75.858 30.597 9.144 60.6 15.79 89.027 20.654-65.679 57.068-145.961 97.731-234.588 115.466 1.976-35.758 2.826-75.018-18.688-103.537-10.22-13.548-27.505-32.123-50.012-52.275 22.036-17.152 44.431-35.85 66.755-56.166v0zM631.214 422.461c-7.997-27.075-18.074-70.431-29.747-120.637-34.447-148.204-67.4-280.832-105.902-365.404 5.458-0.174 10.936-0.42 16.435-0.42 119.327 0 229.018 40.919 316.068 109.363-3.43 145.5-38.318 351.314-126.177 504.084-34.079-25.334-52.419-65.167-70.676-126.986v0z" />
<glyph unicode="&#xe916;" glyph-name="billiards" d="M512.020 960c-282.798 0-512.020-229.222-512.020-512.041 0-282.757 229.222-511.959 512.020-511.959 282.757 0 511.98 229.202 511.98 511.959 0 282.819-229.222 512.041-511.98 512.041v0zM105.902 434.739c0.041-13.404-10.732-24.3-24.136-24.422h-0.184c-13.343 0-24.197 10.793-24.259 24.136-0.051 9.718 1.024 239.647 210.074 396.042 4.383 3.267 9.482 4.813 14.52 4.813 7.404 0 14.705-3.389 19.507-9.728 8.018-10.732 5.816-25.969-4.915-34.028-189.665-141.824-190.607-354.673-190.607-356.813v0zM512.020 161.126c-158.413 0-286.894 128.42-286.894 286.833 0 158.495 128.481 286.915 286.894 286.915 158.433 0 286.853-128.42 286.853-286.915 0-158.413-128.42-286.833-286.853-286.833v0zM877.548 182.405c-4.27 0-8.468 1.485-11.919 4.444-7.588 6.584-8.468 18.094-1.894 25.682 84.070 97.229 84.603 249.61 84.603 251.136 0 10.076 8.141 18.278 18.217 18.278h0.061c10.015 0 18.135-8.141 18.196-18.156 0-6.81-0.594-167.67-93.501-275.046-3.625-4.198-8.663-6.339-13.763-6.339v0zM562.063 459.817v1.731c45.251 21.524 60.549 54.835 60.549 86.026 0 45.763-35.635 90.481-106.957 90.481-64.451 0-113.674-39.68-113.674-97.905 0-31.642 17.5-63.304 58.286-82.586l0.532-1.649c-45.23-19.22-72.98-52.060-72.98-98.488 0-53.658 46.418-99.482 123.32-99.482 70.134 0 125.041 42.926 125.041 106.895 0 44.646-28.273 76.902-74.117 94.976v0zM448.942 543.601c0 31.662 22.589 58.757 63.918 58.757 44.698 0 62.198-30.536 62.198-59.935 0-33.321-24.32-55.982-55.982-66.703-42.445 11.264-70.134 31.058-70.134 67.881v0zM512.266 294.113c-46.961 0-75.244 32.788-73.523 70.134 0 35.031 23.194 63.365 66.181 75.766 49.797-14.121 80.927-35.635 80.927-80.282 0-37.868-28.887-65.618-73.585-65.618v0z" />
<glyph unicode="&#xe917;" glyph-name="boxing" d="M793.569 704c-9.421 0-17.070 7.629-17.070 17.070 0.010 75.274-61.245 136.53-136.52 136.53h-204.8c-75.284 0-136.53-61.256-136.53-136.53 0-9.441-7.649-17.070-17.070-17.070s-17.070 7.629-17.070 17.070c0 94.106 76.564 170.67 170.67 170.67h204.8c94.106 0 170.67-76.564 170.67-170.67-0.010-9.441-7.66-17.070-17.080-17.070v0zM583.772 187.003c6.676-6.676 6.676-17.459 0-24.136-3.328-3.328-7.7-4.997-12.063-4.997s-8.735 1.669-12.063 4.997l-22.067 22.067-22.067-22.067c-3.328-3.328-7.7-4.997-12.063-4.997-4.372 0-8.735 1.669-12.063 4.997-6.676 6.676-6.676 17.459 0 24.136l22.067 22.067-22.067 22.067c-6.676 6.676-6.676 17.459 0 24.136s17.459 6.676 24.136 0l22.067-22.067 22.067 22.067c6.676 6.676 17.459 6.676 24.136 0s6.676-17.459 0-24.136l-22.067-22.067 22.047-22.067zM583.772 50.463c6.676-6.676 6.676-17.459 0-24.136-3.328-3.328-7.7-4.997-12.063-4.997s-8.735 1.669-12.063 4.997l-22.067 22.067-22.067-22.067c-3.328-3.328-7.7-4.997-12.063-4.997-4.372 0-8.735 1.669-12.063 4.997-6.676 6.676-6.676 17.459 0 24.136l22.067 22.067-22.067 22.067c-6.676 6.676-6.676 17.459 0 24.136s17.459 6.676 24.136 0l22.067-22.067 22.067 22.067c6.676 6.676 17.459 6.676 24.136 0s6.676-17.459 0-24.136l-22.067-22.067 22.047-22.067zM639.98 960h-204.8c-131.758 0-238.94-107.182-238.94-238.93v-87.163c-34.406-27.054-51.149-82.688-51.149-169.554 0-102.431 114.104-253.727 153.549-296.264v-180.89c0-28.232 22.968-51.2 51.2-51.2h375.47c28.232 0 51.2 22.968 51.2 51.2v230.779c64.307 44.831 102.4 117.371 102.4 195.891v307.2c0 131.748-107.182 238.93-238.93 238.93v0z" />
<glyph unicode="&#xe918;" glyph-name="croquet" d="M492.329 709.335h61.338v-429.353h-61.338v429.353zM492.329 832.020h61.338v-122.685h-61.338v122.685zM854.774 709.335h61.338v-429.353h-61.338v429.353zM854.774 832.020h61.338v-122.685h-61.338v122.685zM492.329 832.020h429.353c33.894 0 61.358 27.443 61.358 61.338 0 33.874-27.464 61.338-61.358 61.338h-429.353c-33.874 0-61.338-27.464-61.338-61.338 0-33.894 27.464-61.338 61.338-61.338v0zM300.8-21.146h-8.53c-26.726 0-48.404 21.668-48.404 48.404v879.032c0 26.726 21.668 48.404 48.404 48.404h8.53c26.726 0 48.404-21.668 48.404-48.404v-879.032c-0.010-26.737-21.678-48.404-48.404-48.404zM475.249-58.685h-355.881c-43.305 0-78.408 35.103-78.408 78.408v0c0 43.305 35.103 78.408 78.408 78.408h355.881c43.305 0 78.408-35.103 78.408-78.408v0c0-43.305-35.103-78.408-78.408-78.408zM862.689 134.523c0-85.973-69.695-155.668-155.668-155.668s-155.668 69.695-155.668 155.668c0 85.973 69.695 155.668 155.668 155.668s155.668-69.695 155.668-155.668z" />
<glyph unicode="&#xe919;" glyph-name="diving" d="M542.853 601.958l65.403-96.256h38.554c65.403 0 115.415 50.002 115.415 115.651v19.159c0 73.155-61.46 134.81-134.81 134.81h-385.024c-73.103 0-134.564-61.655-134.564-134.81v-19.159c0-65.649 50.002-115.651 115.415-115.651h38.554l69.161 96.256c50.186 80.855 157.942 80.855 211.896 0v0zM323.236 459.459l69.396 96.256c23.101 34.796 65.403 34.796 88.504 0l69.396-96.256c11.459-19.159 38.554-30.607 61.46-30.607h38.554c107.899 0 192.512 84.562 192.512 192.512v19.149c0 115.415-96.256 211.671-211.712 211.671h-385.024c-119.347 0-215.603-96.256-215.603-211.671v-19.159c0-107.95 84.797-192.512 192.512-192.512h38.554c23.101 0 50.002 15.401 61.45 30.618v0zM261.786 467.159h-38.554c-84.797 0-153.958 69.396-153.958 154.204v19.149c0 96.256 76.861 173.353 173.117 173.353h385.024c96.256 0 173.353-77.097 173.353-173.353v-19.159c0-84.797-69.356-154.204-153.958-154.204h-38.554c-7.7 0-23.101 7.752-30.853 15.452l-69.161 96.256c-38.554 57.897-111.657 57.897-150.211 0l-69.396-96.256c-3.748-7.7-19.149-15.442-26.849-15.442v0zM877.865 929.28v-654.633c0-107.704-84.797-192.512-192.512-192.512-107.95 0-192.512 84.808-192.512 192.512h76.861v115.651h-269.373v-115.651h76.861c0-169.37 138.568-307.927 308.163-307.927 169.37 0 307.927 138.557 307.927 307.927v654.633h-115.415zM954.726 736.768h-38.554v153.958h38.554v-153.958z" />
<glyph unicode="&#xe91a;" glyph-name="equestrian" d="M362.476-53.76c0 0-25.856 20.060-31.949 62.403-5.796 42.342-28.15 108.247-24.658 117.524 3.789 9.585 8.397 20.060 8.397 20.060s-30.751 0-26.962 10.701c3.492 10.772 15.38 53.115 15.38 77.783s-6.093 43.54-6.093 43.54-25.856 13.076-36.25 26.962c-10.772 13.967-20.060 37.745-20.060 37.745s-6.093-42.342-26.071-60.027c-20.060-17.756-22.364-53.115-36.332-67.082-14.193-14.193-42.342-38.851-50.739-57.723-8.172-18.872-27.269-42.342-33.137-48.22-5.796-5.796-6.912 10.772-1.116 35.144 6.093 24.955 35.359 138.998 40.038 163.666 4.608 24.668 34.253 107.131 62.403 137.882 28.385 30.454 57.723 25.774 57.723 25.774s37.745 51.712 70.502 60.099c33.137 8.1 48.21 0 62.403 8.1 14.264 8.172 34.243 25.856 34.243 25.856s12.78 41.236 30.464 73.103c17.684 31.652 31.939 51.712 29.348 63.59-2.079 11.592-27.044 55.122-37.448 58.614 0 0-28.457-6.984-61.215-9.288-33.137-2.304-40.038 2.304-43.54 3.492-3.789 1.116-9.288 9.288-9.288 9.288s-6.984-10.476-9.585-4.68c-2.376 5.796 1.116 26.153-6.093 34.253-6.984 8.172-6.984 16.271-5.499 24.668 1.116 8.172-31.949 15.38-36.628 31.652-4.608 16.568-2.304 33.065 5.796 42.342 8.468 9.585 18.872 31.949 29.645 36.557 10.404 4.68 23.767 9.882 31.949 4.977 8.397-4.68 19.681-11.889 26.675-13.373 10.998-1.71 19.763-11.592 37.448-4.311 17.684 6.912 19.978 21.176 24.658 17.684 4.608-3.789 0-23.552-10.476-38.932-10.701-15.38-24.668-26.071-37.448-36.547-12.78-10.701-26.081-26.972-23.47-31.867 2.304-4.68 1.188-9.585-2.601-16.568-3.195-6.687 8.397-17.388 15.38-17.388s17.684 3.42 26.962 6.912c9.585 3.789 10.772 8.172 10.772 8.172s4.608 24.965 10.701 30.751c5.796 6.093 16.271 11.592 29.348 9.288 12.78-2.376 23.48-4.383 23.48-4.383s2.304 12.78 1.188 19.763c-1.188 7.209 2.304 11.889 2.304 11.889s-10.998 10.988-10.998 29.86 6.318 36.035 18.575 40.632c12.483 4.68 29.573 3.789 37.663 0 8.468-3.492 13.076-4.608 13.076-8.1 0-3.789 8.1-13.076 8.694-19.466 0.594-6.687-0.594-8.397 4.086-13.67 4.68-5.499 12.483-11.889 9.288-13.896-2.601-2.591-8.1-1.997-8.1-1.997s-0.594-8.172 0-13.373c0.522-5.499 2.304-14.193-1.782-17.388-4.086-2.673-15.084-1.485-15.084-1.485s2.304-11.889 4.68-16.271c2.304-3.789 8.1-5.796 9.288-10.404 1.116-4.68 34.765-17.162 41.748-25.262 7.281-8.172 16.271-17.684 19.466-24.668 2.898-6.984-1.188-17.756-1.188-17.756s18.872-34.171 22.364-39.444c3.492-5.202 6.687-8.397 8.694-7.506 2.304 0.522 1.782 5.796 5.499 2.898 3.492-2.898 2.898-9.882 6.984-9.882s6.39 1.188 10.179-4.68c3.492-6.093 10.998-12.483 11.592-15.892 0.891-3.492 1.71-9.062 1.71-9.062s14.264 20.654 21.77 40.94c7.578 19.763 13.67 41.523 23.552 52.224 10.179 10.476 17.684 21.248 21.176 25.856 3.789 4.68 19.466 27.566 41.226 36.547 21.77 8.694 31.652 10.772 40.038 9.585 8.1-1.413 12.78-4.905 12.78-4.905s7.209 17.091 10.701 14.787c3.789-2.304 2.304-27.259 2.304-27.259s11.96 1.71 21.77-4.086c9.882-5.796 13.67-11.592 13.67-11.592s5.796 11.592 10.179 19.466c3.717 7.506 4.608 15.606 8.1 16.2 3.492 0.891 5.202-22.292 4.68-31.57-0.594-9.288-2.898-15.452-7.578-21.77-4.608-6.39-6.39-10.772-6.093-16.568 0.891-5.796-4.086-24.658 1.188-31.652 5.499-6.984 9.585-19.988 4.014-28.457-5.202-8.1-13.896-9.882-17.684-21.77-3.492-11.592-3.789-19.395-7.578-28.16-3.42-8.694-13.005-38.257-10.998-49.848 1.485-11.96 8.1-27.863 6.39-33.137-1.71-5.202-1.485-13.076-6.39-15.974-5.499-2.898-10.179-10.998-13.076-14.49-2.898-3.789-3.492-3.195-12.483-1.71-8.694 1.116-16.2 2.304-18.575 5.202-2.304 2.898-4.905 7.578-4.905 7.578s-2.304-2.376-5.796-0.594c-3.789 1.71 1.71-7.578 1.71-13.67 0-5.796 7.578-36.547 13.67-44.124 5.796-7.506 6.984-17.684 7.506-32.768 0.594-15.38-12.186-54.825-5.796-60.099 6.39-5.202 35.144-21.77 47.616-23.48 12.483-1.71 40.643-6.093 49.93-21.176 9.585-15.38 17.091-29.942 12.483-38.932-4.68-8.694-1.188-46.131 1.116-60.918 2.376-14.787 7.578-30.761 3.195-39.444-4.905-8.694-12.483-24.064-13.302-37.151-0.594-13.076-2.898-21.176-8.765-29.942-5.796-8.991-10.404-21.176-15.892-28.682-5.274-7.875-8.172-8.991-13.967-7.875-6.093 1.188-28.754 14.787-29.573 38.339-0.297 23.48 3.717 36.557 7.803 38.339 4.086 1.71 18.278 1.116 24.064 4.608 6.093 3.789 10.772 8.397 11.069 13.076 0.594 4.608-6.093 8.397-4.68 13.896 1.782 6.093 4.086 41.226 3.195 60.099-1.413 18.872-4.014 39.444-17.091 43.233-13.076 3.492-36.035-1.485-48.732-1.782-13.076-0.819-54.303-1.71-54.303-1.71s26.962-7.281 24.074-13.67c-2.898-6.318-28.16-22.886-43.53-25.18-15.38-2.376-13.302-10.179-16.2-13.67-3.195-3.492-21.77-5.796-26.45-5.796-4.608 0-9.585 15.084-13.076 32.768-3.717 17.756-6.093 32.543-6.093 32.543l-27.566-10.179c0 0-19.466-45.834-17.091-71.096 2.601-25.262-4.68-45.834-12.78-76.298-8.397-30.761-11.295-82.463-6.093-94.351 5.499-11.592 13.599-8.1 20.582-19.988 7.281-11.663 26.747-28.15 21.176-32.543-5.202-3.789-57.723-12.78-57.723-12.78s-6.39 11.366-7.578 27.566c-1.116 16.568-14.787 19.763-16.497 31.652-1.485 12.483-10.179 18.278-0.594 49.623 9.585 31.058 12.483 75.479 11.889 105.052-0.594 30.167-1.188 74.885-1.188 74.885s-40.561-18.872-65.229-19.466c-24.668-0.594-47.022 0-47.022 0s-11.889-37.151-39.526-64.113c-27.791-26.962-45.844-61.215-45.844-61.215s32.84-6.687 38.636-18.575c6.093-11.889 1.71-33.137 6.687-44.718 4.608-11.889 5.796-15.974 2.898-33.362-2.898-17.981-13.67-29.563-13.67-29.563s-13.896-4.977-26.962 13.896c-13.076 18.872-10.179 26.44-10.179 28.457 0 1.71 8.397 13.896 8.991 21.463 0.297 7.803 1.782 14.787-6.39 18.872-8.397 4.086-28.969 10.179-28.969 10.179s-15.677-36.628-16.271-47.913c-0.891-10.998 2.304-48.732 7.578-62.7 5.202-14.193 8.694-34.253 21.176-39.741 12.186-5.202 44.052-22.886 44.052-22.886l-65.843-14.858z" />
<glyph unicode="&#xe91b;" glyph-name="fencing" d="M1002.916 47.493l-115.149 115.149-72.765-72.765 115.139-115.149c10.056-10.056 23.214-15.073 36.372-15.073 13.169 0 26.337 5.028 36.393 15.073 20.101 20.111 20.101 52.664 0.010 72.765v0zM435.589 508.088l38.093 33.331-407.593 391.537c-4.659 4.454-12.032 4.526-16.753 0.072-4.854-4.618-5.059-12.288-0.471-17.152l386.724-407.788zM588.483 431.165l-38.124-44.124 67.174-70.81c6.236 8.212 12.626 16.312 20.060 23.747 7.608 7.608 15.77 14.367 24.156 20.767l-73.267 70.42zM901.775 292.813c-1.444 10.65-7.731 20.029-17.091 25.354-25.293 14.438-53.565 21.678-81.828 21.678-42.25 0-84.49-16.118-116.716-48.384-53.832-53.821-62.71-135.537-26.706-198.543 5.325-9.349 14.735-15.647 25.385-17.050 1.546-0.215 3.082-0.297 4.628-0.297 9.052 0 17.818 3.584 24.32 10.076l178.186 178.196c7.608 7.598 11.223 18.319 9.82 28.969v0zM21.084 47.493c-20.091-20.091-20.091-52.664 0-72.765 10.066-10.056 23.214-15.073 36.383-15.073s26.337 5.028 36.393 15.073l115.139 115.149-72.765 72.765-115.149-115.149zM975.073 932.628c-4.628 4.823-12.329 4.987-17.162 0.328l-595.661-572.211c8.376-6.4 16.548-13.158 24.115-20.767 7.434-7.434 13.844-15.534 20.101-23.747l568.658 599.654c4.434 4.639 4.465 12.042-0.051 16.742v0zM221.164 339.845c-28.273 0-56.556-7.24-81.848-21.678-9.349-5.325-15.647-14.705-17.091-25.344-1.403-10.66 2.222-21.381 9.82-28.979l178.186-178.196c6.502-6.482 15.268-10.076 24.32-10.076 1.536 0 3.072 0.102 4.618 0.297 10.66 1.403 20.060 7.7 25.395 17.050 36.004 63.007 27.126 144.722-26.706 198.543-32.215 32.276-74.465 48.384-116.695 48.384v0z" />
<glyph unicode="&#xe91c;" glyph-name="fitness" d="M991.549 762.010h-27.341v91.556c0 9.472-7.67 17.142-17.142 17.142h-46.828c-9.472 0-17.152-7.67-17.152-17.142v-91.556h-59.853c2.488 26.214-16.814 49.172-42.394 51.886-26.317 2.775-49.654-16.466-52.388-42.363l-1.014-9.523h-82.504c-24.33-52.552-76.872-86.477-135.055-86.477-58.982 0-111.073 34.693-135.055 86.477h-82.196l-1.014 9.523c-2.755 26.102-26.307 45.128-52.388 42.363-25.539-2.703-44.892-25.641-42.394-51.886h-60.017v91.556c0 9.462-7.68 17.142-17.142 17.142h-46.828c-9.472 0-17.142-7.68-17.142-17.142v-91.556h-27.341c-17.91 0-32.44-14.52-32.44-32.44s14.531-32.451 32.44-32.451h27.341v-91.546c0-9.472 7.68-17.152 17.142-17.152h46.838c9.462 0 17.142 7.68 17.142 17.152v91.546h66.847c2.058-19.415 16.568-156.682 18.719-176.988 4.301-40.735 55.634-57.969 83.261-26.348l66.959 76.626v-182.292l-173.251-70.39c-20.214-8.212-34.632-26.47-37.919-48.056l-34.56-226.601c-5.161-33.823 18.084-65.423 51.896-70.584 33.823-5.161 65.423 18.084 70.584 51.896l29.266 191.816 160.266 65.106h142.275l160.276-65.106 29.256-191.816c5.161-33.823 36.762-57.057 70.584-51.896s57.057 36.762 51.896 70.584l-34.56 226.601c-3.297 21.576-17.695 39.834-37.919 48.056l-174.664 70.953v183.368l68.383-78.264c26.88-30.771 78.817-15.534 83.251 26.337 2.15 20.265 16.671 157.614 18.729 176.998h66.693v-91.556c0-9.472 7.68-17.152 17.152-17.152h46.828c9.472 0 17.152 7.68 17.152 17.152v91.556h27.341c17.92 0 32.451 14.52 32.451 32.44-0.020 17.93-14.551 32.451-32.471 32.451v0zM305.674 638.628c-2.57 24.289-3.645 34.447-6.185 58.491h57.293c-20.756-23.767-30.065-34.406-51.108-58.491v0zM714.394 638.628c-23.685 27.095 6.738-7.711-51.108 58.491h57.293c-4.803-45.414-3.625-34.232-6.185-58.491v0zM616.878 824.32c0-59.085-47.903-106.988-106.998-106.988s-106.988 47.903-106.988 106.988c0 59.095 47.892 106.998 106.988 106.998 59.095-0.010 106.998-47.913 106.998-106.998v0z" />
<glyph unicode="&#xe91d;" glyph-name="football" d="M319.498 922.563c-63.498-25.774-120.504-63.642-169.349-112.486-48.906-48.835-86.702-105.912-112.466-169.4-24.873-61.338-37.509-126.157-37.509-192.676 0-66.468 12.646-131.267 37.509-192.625 25.764-63.56 63.56-120.545 112.466-169.4 48.845-48.845 105.851-86.702 169.349-112.466 61.338-24.883 126.208-37.458 192.676-37.458 66.54 0 131.338 12.575 192.696 37.458 63.488 25.774 120.474 63.621 169.318 112.466 48.916 48.855 86.774 105.83 112.466 169.4 24.883 61.358 37.509 126.157 37.509 192.625 0 66.519-12.626 131.338-37.509 192.676-25.702 63.498-63.621 120.566-112.466 169.4-48.845 48.845-105.83 86.712-169.329 112.486-61.348 24.863-126.157 37.437-192.686 37.437-66.468 0-131.338-12.575-192.676-37.437v0zM128.113 232.438c-24.658 15.473-47.38 33.372-67.492 54.313-30.74 86.487-35.922 180.101-15.544 269.025 9.533 18.852 20.449 37.018 32.758 54.364 3.789 5.376 7.322 10.988 11.387 16.169l115.579-68.393v-2.898c-0.266-62.116 6.011-123.802 18.586-184.607 0-0.287 0.072-0.41 0.143-0.686l-89.62-140.513c-1.925 1.014-3.922 2.058-5.796 3.226v0zM471.685-5.018c19.896-10.22 40.417-18.78 61.491-25.764-89.467-3.86-179.896 17.060-259.768 62.945l193.649-34.54c1.516-0.983 3.041-1.884 4.628-2.642v0zM470.999 29.952l-228.618 40.694c-26.726 32.471-50.78 66.867-71.434 103.557-5.253 9.339-11.121 18.381-15.616 28.191l89.549 140.319c1.925-0.492 4.137-1.044 6.707-1.659 55.962-15.002 112.968-25.631 170.373-33.997 3.308-0.481 6.134-0.901 8.561-1.096l107.284-185.58c-18.637-26.173-37.437-52.224-56.719-77.926-3.174-4.352-6.574-8.417-10.086-12.503v0zM851.251 108.995c-18.237-18.237-37.509-34.611-57.764-49.254-3.308 26.726-9.114 53.064-17.265 78.684l114.483 213.617c31.57 14.305 61.952 30.597 90.214 50.78 3.656 2.632 6.707 5.591 9.124 8.776-8.284-110.336-54.569-218.388-138.793-302.602v0zM846.141 385.956c4.28-8.079 8.489-16.302 12.718-24.607l-110.612-206.285c-0.614-0.195-1.239-0.338-1.874-0.41-59.812-11.192-120.074-17.142-180.787-17.418l-110.397 190.833c17.193 31.908 34.191 63.969 51.046 95.949 11.479 21.77 22.723 43.592 33.997 65.495l228.403 23.439c27.965-40.991 54.497-82.924 77.507-126.996v0zM799.785 630.661c-10.772-28.6-22.395-56.934-33.925-85.32l-222.525-22.866c-2.693 3.523-5.396 6.973-8.294 10.22-26.317 29.768-52.705 59.341-79.165 88.975 0.266 0.358 0.481 0.553 0.758 0.829-10.65 10.65-21.35 21.279-31.99 31.928l61.901 186.542c4.28 1.096 8.632 2.068 12.913 2.55 33.731 3.379 67.441 7.25 101.222 9.247 20.654 1.116 41.462 1.802 62.454 0.358l153.303-172.8c-5.315-16.64-10.496-33.352-16.65-49.664v0zM851.251 787.077c42.291-42.291 75.028-90.573 98.181-142.131-28.672 19.702-59.279 35.942-91.474 49.132-4.966 2.068-10.148 3.871-15.329 5.663l-150.886 170.025c1.024 7.322 1.577 14.715 1.782 22.108 57.405-23.347 111.227-58.296 157.727-104.796v0zM358.595 900.854c0.614-0.481 0.881-0.829 1.239-0.901 34.468-11.94 65.843-29.501 95.396-50.278l-57.815-174.316c-0.358-0.072-0.614-0.143-0.901-0.266-11.817-4.915-23.89-9.267-35.584-14.592-48.005-21.821-94.853-45.998-138.998-75.028l-114.135 67.584c0.143 3.594 0.758 7.178 1.925 10.414 7.68 20.46 15.278 40.98 23.91 61.020 6.707 15.401 14.295 30.31 22.589 44.902 5.468 5.939 11.049 11.889 16.855 17.684 54.241 54.231 118.354 92.713 186.604 115.507-0.317-0.543-0.748-1.106-1.085-1.731v0z" />
<glyph unicode="&#xe91e;" glyph-name="golf" d="M385.751 325.693c11.93-26.788 32.973-48.476 59.392-61.204 14.531-6.922 53.309-25.395 49.48-311.163-0.102-4.598 1.659-9.042 4.905-12.319 6.963-6.697 17.971-6.676 24.914 0.041 3.174 3.246 4.895 7.649 4.762 12.186-5.12 285.942 33.546 304.353 48.087 311.286 26.184 12.636 47.124 34.048 59.156 60.508-80.65-31.468-170.22-31.232-250.696 0.666zM512 960c-171.715 0-310.907-139.203-310.907-310.907s139.192-310.917 310.907-310.917 310.907 139.203 310.907 310.907c-0.184 171.643-139.274 310.723-310.907 310.917zM604.897 564.603c0.932 2.212 2.232 4.25 3.85 6.031 5.253 5.202 13.117 6.717 19.927 3.85 2.243-0.891 4.291-2.191 6.042-3.85 1.608-1.782 2.908-3.82 3.84-6.031 1.956-4.434 1.956-9.472 0-13.906-0.932-2.212-2.232-4.26-3.84-6.042-1.751-1.649-3.799-2.949-6.042-3.84-2.202-0.942-4.557-1.434-6.953-1.464-4.844 0.072-9.482 1.966-12.984 5.304-1.618 1.782-2.918 3.82-3.85 6.042-1.925 4.434-1.925 9.472 0.010 13.906v0zM530.657 543.017c0.195 1.147 0.563 2.253 1.085 3.297 0.369 1.126 0.932 2.171 1.649 3.103 0.625 1.055 1.362 2.028 2.202 2.918 7.332 6.769 18.637 6.769 25.969 0 0.829-0.891 1.567-1.874 2.191-2.918 0.727-0.932 1.28-1.987 1.649-3.103 0.522-1.034 0.891-2.15 1.096-3.297 0.215-1.208 0.338-2.437 0.369-3.666 0-10.097-8.192-18.289-18.289-18.289s-18.289 8.192-18.289 18.289c0.031 1.229 0.154 2.458 0.369 3.666v0zM457.503 543.017c0.195 1.147 0.563 2.253 1.085 3.297 0.369 1.126 0.932 2.171 1.649 3.103 0.727 1.096 1.464 2.007 2.202 2.918 7.332 6.769 18.637 6.769 25.969 0 0.829-0.891 1.567-1.874 2.191-2.918 0.727-0.932 1.28-1.987 1.649-3.103 0.522-1.034 0.891-2.15 1.096-3.297 0.215-1.208 0.338-2.437 0.369-3.666 0-10.097-8.192-18.289-18.289-18.289s-18.289 8.192-18.289 18.289c0.031 1.229 0.154 2.458 0.369 3.666v0zM385.434 564.603c1.679 4.588 5.294 8.192 9.871 9.871 4.454 1.823 9.452 1.823 13.906 0 4.588-1.669 8.202-5.284 9.871-9.871 1.956-4.434 1.956-9.472 0-13.906-1.669-4.598-5.284-8.212-9.871-9.871-4.434-1.956-9.472-1.956-13.906 0-4.588 1.669-8.202 5.284-9.871 9.871-1.946 4.434-1.946 9.472 0 13.906v0zM268.943 599.532c-3.512-3.338-8.141-5.233-12.984-5.304-2.396 0.031-4.751 0.522-6.953 1.464-4.588 1.669-8.202 5.284-9.871 9.871-0.932 2.202-1.434 4.557-1.454 6.953 0.072 4.844 1.966 9.482 5.304 12.984 1.772 1.618 3.809 2.918 6.031 3.85 6.83 2.683 14.602 1.178 19.937-3.85 3.338-3.502 5.233-8.141 5.304-12.984-0.031-2.386-0.522-4.751-1.464-6.943-0.942-2.222-2.243-4.26-3.85-6.042v0zM305.521 508.078c-1.782-1.608-3.82-2.908-6.042-3.84-2.171-1.024-4.547-1.526-6.953-1.464-1.229 0.031-2.447 0.154-3.666 0.369-1.147 0.205-2.253 0.573-3.297 1.096-1.126 0.369-2.171 0.932-3.103 1.649-1.044 0.625-2.028 1.352-2.918 2.191-7.076 7.209-7.076 18.76 0 25.969 5.253 5.202 13.117 6.717 19.927 3.85 2.212-0.932 4.26-2.232 6.042-3.85 7.086-7.209 7.086-18.749 0.010-25.969v0zM336.056 559.104c-4.434-1.956-9.472-1.956-13.906 0-2.212 0.932-4.25 2.232-6.031 3.84-3.338 3.502-5.233 8.141-5.304 12.984 0.020 2.396 0.522 4.751 1.454 6.953 1.679 4.588 5.294 8.192 9.871 9.871 4.454 1.823 9.452 1.823 13.906 0 4.588-1.669 8.202-5.284 9.871-9.871 0.942-2.202 1.434-4.567 1.464-6.953-0.072-4.844-1.966-9.472-5.304-12.984-1.761-1.608-3.799-2.908-6.021-3.84v0zM382.515 477.542c-0.399-1.167-0.952-2.273-1.649-3.297-1.249-1.987-2.939-3.676-4.925-4.925-1.024-0.696-2.13-1.249-3.297-1.649-1.034-0.522-2.15-0.891-3.297-1.096-1.208-0.205-2.427-0.328-3.656-0.369-4.844 0.072-9.482 1.966-12.984 5.304-0.727 0.922-1.464 1.833-2.202 2.744-0.696 1.024-1.249 2.13-1.649 3.297-0.522 1.034-0.891 2.15-1.085 3.297-0.215 1.208-0.338 2.427-0.369 3.656 0.072 4.844 1.966 9.482 5.304 12.984 4.393 4.291 10.619 6.144 16.64 4.936 1.147-0.195 2.253-0.563 3.297-1.085 1.167-0.399 2.273-0.952 3.297-1.649 0.911-0.727 1.823-1.464 2.744-2.202 3.338-3.502 5.233-8.141 5.304-12.984-0.031-1.229-0.154-2.447-0.369-3.656-0.215-1.157-0.584-2.273-1.106-3.308v0zM420.188 407.685c-0.205-1.147-0.573-2.253-1.096-3.297-0.399-1.167-0.952-2.273-1.649-3.297-0.727-0.911-1.454-1.823-2.191-2.744-0.922-0.727-1.833-1.464-2.744-2.191-1.024-0.696-2.13-1.249-3.297-1.649-1.034-0.522-2.15-0.891-3.297-1.096-1.208-0.215-2.427-0.328-3.656-0.369-4.844 0.072-9.482 1.966-12.984 5.304-0.727 0.922-1.464 1.833-2.202 2.744-0.696 1.024-1.249 2.13-1.649 3.297-0.522 1.034-0.891 2.15-1.085 3.297-0.215 1.208-0.338 2.427-0.369 3.656 0.072 4.844 1.966 9.482 5.304 12.984 4.372 4.321 10.619 6.164 16.64 4.936 1.147-0.195 2.253-0.563 3.297-1.085 1.167-0.399 2.273-0.952 3.297-1.649 0.963-0.676 1.874-1.413 2.744-2.202 3.338-3.502 5.233-8.141 5.304-12.984-0.031-1.229-0.154-2.447-0.369-3.656zM445.788 449.372c-4.434-1.956-9.472-1.956-13.906 0-2.212 0.932-4.25 2.232-6.031 3.84-7.076 7.209-7.076 18.76 0 25.969 1.772 1.618 3.809 2.918 6.031 3.85 4.454 1.823 9.452 1.823 13.906 0 2.243-0.891 4.291-2.191 6.042-3.85 7.076-7.209 7.076-18.76 0-25.969-1.782-1.608-3.82-2.908-6.042-3.84v0zM488.407 380.058c-0.87-0.788-1.782-1.516-2.744-2.191-1.024-0.696-2.13-1.249-3.297-1.649-1.034-0.522-2.15-0.891-3.297-1.096-1.208-0.215-2.427-0.328-3.656-0.369-1.229 0.041-2.447 0.164-3.666 0.369-1.147 0.205-2.253 0.573-3.297 1.096-1.167 0.399-2.273 0.963-3.287 1.649-0.963 0.666-1.874 1.403-2.744 2.191-3.338 3.502-5.233 8.141-5.304 12.984 0.020 2.396 0.522 4.751 1.454 6.953 0.932 2.212 2.232 4.25 3.85 6.031 4.372 4.321 10.619 6.164 16.64 4.936 1.147-0.195 2.253-0.563 3.297-1.085 1.167-0.399 2.273-0.952 3.297-1.649 0.911-0.727 1.823-1.464 2.744-2.202 1.608-1.782 2.908-3.82 3.84-6.031 0.942-2.202 1.434-4.567 1.464-6.953-0.061-4.833-1.956-9.472-5.294-12.984zM522.24 451.031c-1.024-0.696-2.13-1.249-3.297-1.649-1.034-0.522-2.15-0.891-3.297-1.096-1.208-0.215-2.427-0.328-3.656-0.369-1.229 0.041-2.447 0.164-3.666 0.369-1.147 0.205-2.253 0.573-3.297 1.096-1.167 0.399-2.273 0.963-3.287 1.649-0.963 0.666-1.874 1.403-2.744 2.191-7.096 7.158-7.066 18.708 0.072 25.825s18.688 7.117 25.825 0c7.137-7.117 7.168-18.668 0.072-25.825-0.85-0.788-1.761-1.516-2.724-2.191v0zM561.562 380.058c-5.233-5.274-13.138-6.861-19.999-4.014s-11.315 9.564-11.274 16.998c0.020 2.396 0.522 4.751 1.454 6.953 0.932 2.212 2.232 4.25 3.85 6.031 5.253 5.202 13.117 6.717 19.927 3.85 4.588-1.669 8.202-5.284 9.871-9.871 0.942-2.202 1.434-4.567 1.464-6.953-0.061-4.844-1.956-9.482-5.294-12.995zM595.395 451.031c-1.024-0.696-2.13-1.249-3.297-1.649-1.034-0.522-2.15-0.891-3.297-1.096-1.208-0.215-2.427-0.328-3.656-0.369-4.864-0.051-9.544 1.864-12.984 5.304s-5.356 8.12-5.304 12.984c0.041 1.229 0.164 2.447 0.369 3.666 0.195 1.147 0.563 2.253 1.085 3.297 0.369 1.126 0.932 2.171 1.649 3.103 0.727 1.096 1.464 2.007 2.202 2.918 4.424 4.239 10.619 6.072 16.64 4.936 1.147-0.195 2.253-0.563 3.297-1.085 1.167-0.399 2.273-0.952 3.297-1.649 0.911-0.727 1.823-1.464 2.744-2.202 7.076-7.209 7.076-18.76 0-25.969-0.87-0.788-1.782-1.516-2.744-2.191v0zM639.652 407.685c-0.205-1.147-0.573-2.253-1.096-3.297-0.399-1.167-0.952-2.273-1.649-3.297-0.727-0.911-1.454-1.823-2.191-2.744-0.922-0.727-1.833-1.464-2.744-2.191-1.024-0.696-2.13-1.249-3.297-1.649-1.034-0.522-2.15-0.891-3.297-1.096-1.208-0.215-2.427-0.328-3.656-0.369-4.844 0.072-9.482 1.966-12.984 5.304-0.727 0.922-1.464 1.833-2.202 2.744-0.696 1.024-1.249 2.13-1.649 3.297-0.522 1.034-0.891 2.15-1.085 3.297-0.215 1.208-0.338 2.427-0.369 3.656 0.072 4.844 1.966 9.482 5.304 12.984 4.372 4.321 10.619 6.164 16.64 4.936 1.147-0.195 2.253-0.563 3.297-1.085 1.167-0.399 2.273-0.952 3.297-1.649 0.963-0.676 1.874-1.413 2.744-2.202 3.338-3.502 5.233-8.141 5.304-12.984-0.031-1.229-0.154-2.447-0.369-3.656zM676.229 480.84c-0.205-1.147-0.573-2.253-1.096-3.297-0.399-1.167-0.952-2.273-1.649-3.297-1.249-1.987-2.939-3.676-4.925-4.925-1.024-0.696-2.13-1.249-3.297-1.649-1.034-0.522-2.15-0.891-3.297-1.096-1.208-0.215-2.427-0.328-3.656-0.369-4.844 0.072-9.482 1.966-12.984 5.304-0.727 0.922-1.464 1.833-2.202 2.744-0.696 1.024-1.249 2.13-1.649 3.297-0.522 1.034-0.891 2.15-1.085 3.297-0.215 1.208-0.338 2.427-0.369 3.656 0.072 4.844 1.966 9.482 5.304 12.984 4.372 4.321 10.619 6.164 16.64 4.936 1.147-0.195 2.253-0.563 3.297-1.085 1.167-0.399 2.273-0.952 3.297-1.649 0.911-0.727 1.823-1.464 2.744-2.202 3.338-3.502 5.233-8.141 5.304-12.984-0.041-1.239-0.164-2.458-0.379-3.666v0zM701.839 559.114c-4.434-1.956-9.472-1.956-13.906 0-2.212 0.932-4.25 2.232-6.031 3.84-3.338 3.502-5.233 8.141-5.304 12.984 0.020 2.396 0.522 4.751 1.454 6.953 1.679 4.588 5.294 8.192 9.871 9.871 4.454 1.823 9.452 1.823 13.906 0 4.588-1.669 8.202-5.284 9.871-9.871 0.942-2.202 1.434-4.567 1.464-6.953-0.072-4.844-1.966-9.472-5.304-12.984-1.772-1.618-3.809-2.918-6.021-3.84v0zM749.394 517.417c-0.205-1.147-0.573-2.253-1.096-3.297-0.399-1.167-0.952-2.273-1.649-3.297-0.727-0.911-1.454-1.823-2.191-2.744-1.782-1.608-3.82-2.908-6.042-3.84-4.434-1.956-9.472-1.956-13.906 0-2.212 0.932-4.25 2.232-6.031 3.84-0.727 0.922-1.464 1.833-2.202 2.744-0.696 1.024-1.249 2.13-1.649 3.297-0.522 1.034-0.891 2.15-1.085 3.297-0.215 1.208-0.338 2.427-0.369 3.656 0.072 4.844 1.966 9.482 5.304 12.984 1.772 1.618 3.809 2.918 6.031 3.85 4.413 2.007 9.482 2.007 13.906 0 2.212-0.932 4.26-2.232 6.042-3.85 3.338-3.502 5.233-8.141 5.304-12.984-0.041-1.229-0.164-2.447-0.369-3.656zM781.025 599.532c-1.782-1.608-3.82-2.908-6.042-3.84-2.202-0.942-4.557-1.434-6.953-1.464-4.844 0.072-9.482 1.966-12.984 5.304-1.618 1.782-2.918 3.82-3.85 6.042-0.932 2.202-1.434 4.557-1.454 6.953 0.072 4.844 1.966 9.482 5.304 12.984 0.87 0.788 1.782 1.526 2.744 2.202 1.014 0.696 2.12 1.249 3.287 1.649 1.034 0.522 2.15 0.891 3.297 1.085 3.564 0.748 7.27 0.369 10.609-1.085 2.212-0.932 4.26-2.232 6.042-3.85 3.338-3.502 5.233-8.141 5.304-12.984-0.031-2.386-0.522-4.751-1.464-6.943-0.932-2.232-2.222-4.27-3.84-6.052z" />
<glyph unicode="&#xe91f;" glyph-name="gymnasium" d="M951.030 855.91l-16.783 75.878c-4.301 19.405-23.511 31.652-42.906 27.351-19.405-4.291-31.652-23.491-27.351-42.895l10.056-45.496-146.944-55.747c-16.609-6.298-26.132-23.777-22.426-41.144l70.769-331.93c31.713-4.751 58.112-8.724 76.022-11.407l-69.97 328.141 147.18 55.828c16.691 6.339 26.204 23.982 22.354 41.421v0zM834.212 72.141c72.223 10.24 127.969 72.448 127.969 147.466 0 63.273-39.649 117.443-95.406 139.008 0 0-564.756 86.221-579.727 86.221-124.201 0-225.239-101.048-225.239-225.239 0-76.79 38.636-144.722 97.475-185.385l-36.792-36.792c-14.049-14.049-14.049-36.833 0-50.893 7.045-7.014 16.241-10.527 25.457-10.527 9.206 0 18.422 3.512 25.446 10.537l53.146 53.156c0.758 0.758 1.464 1.556 2.14 2.365 18.627-4.997 38.195-7.68 58.378-7.68 24.248 0 302.705 41.82 459.53 65.669 1.444-2.396 3.154-4.68 5.202-6.769l104.929-106.527c7.045-7.158 16.333-10.732 25.631-10.732 9.124 0 18.237 3.441 25.252 10.342 14.152 13.947 14.326 36.731 0.379 50.883l-73.769 74.895zM287.058 106.496c-62.474 0-113.101 50.637-113.101 113.101 0 62.474 50.637 113.101 113.101 113.101s113.101-50.637 113.101-113.101c0-62.464-50.647-113.101-113.101-113.101v0zM424.325 614.953c0 19.876-16.108 35.983-35.973 35.983h-158.403c-19.876 0-35.983-16.108-35.983-35.983s16.118-35.973 35.983-35.973h58.644l28.529-68.782c14.459-2.068 36.966-5.396 72.796-10.691 2.417-0.358 4.905-0.737 7.414-1.106l-33.413 80.568h24.453c19.855 0.010 35.953 16.108 35.953 35.983v0z" />
<glyph unicode="&#xe920;" glyph-name="gymnastics" d="M829.368 959.764c-164.178-14.459-285.338-96.43-355.983-214.856-47.309-59.331-141.875-240.476-176.22-335.288-62.413-117.934-116.726-258.253-159.314-384.686-25.948-77.353 90.757-127.795 116.961-50.115 31.846 94.587 70.257 196.915 113.644 291.901 43.162-96.512 86.968-192.717 134.031-287.365 36.383-73.4 146.135-8.98 109.752 64.195-48.404 97.485-93.348 196.424-137.738 295.762 0.584 1.925 1.3 3.789 1.946 5.652 7.342-2.109 15.524-2.755 24.504-1.055 67.809 12.769 135.537 25.477 203.459 38.154 28.928 5.509 40.079 37.181 35.471 62.556-13.66 76.155-57.047 129.106-110.981 179.139-8.008 27.31-34.765 51.405-64.42 75.325 60.129 97.178 158.259 149.944 285.983 161.178 65.229 5.745 43.489 105.155-21.094 99.502v0zM582.246 527.237c16.824-17.469 31.037-35.82 41.8-57.068-32.819-6.144-65.638-12.288-98.458-18.442 16.579 26.593 35.656 51.825 56.658 75.51v0zM809.953 701.184c0-48.251-39.107-87.306-87.306-87.306-48.261 0-87.368 39.045-87.368 87.306s39.107 87.306 87.368 87.306c48.2 0 87.306-39.045 87.306-87.306v0z" />
<glyph unicode="&#xe921;" glyph-name="handball" d="M851.702 366.264c-9.718-8.11-21.535-12.073-33.28-12.073-14.899 0-29.676 6.369-39.956 18.688l-15.759 18.893c-40.223 48.22-84.367 93.368-131.686 134.789 0 0 8.274-329.247-206.828-526.367l-25.702-25.016c-10.107-9.851-23.194-14.746-36.28-14.746-13.548 0-27.075 5.253-37.263 15.708-20.050 20.582-19.599 53.514 0.963 73.544l25.702 25.047c60.334 58.747 102.001 133.407 120.637 214.63-34.099-10.424-69.458-15.708-104.847-15.708-65.925 0-131.85 18.135-189.409 54.395-24.31 15.299-31.59 47.421-16.292 71.711s47.421 31.611 71.731 16.282c68.096-42.895 152.76-49.869 226.263-21.023l20.347 186.255c-4.844-0.236-9.646-0.389-14.479-0.389-74.824 0-147.558 27.914-204.247 80.282l-3.389 3.113c-4.301-0.625-8.704-0.963-13.169-0.963-50.371 0-91.187 40.817-91.187 91.187 0 50.35 40.817 91.167 91.187 91.167 50.35 0 91.167-40.817 91.167-91.167 0-6.451-0.676-12.728-1.946-18.79 49.889-44.841 118.098-61.297 183.081-44.022l30.812 8.192c0.338 0.102 0.696 0.133 1.034 0.215 0.911 0.236 1.843 0.42 2.775 0.594 0.799 0.154 1.597 0.307 2.386 0.41 0.85 0.113 1.679 0.205 2.519 0.266 0.881 0.082 1.761 0.174 2.621 0.205 0.788 0.031 1.577 0.020 2.376 0.020 0.901 0 1.792-0.020 2.693-0.061 0.809-0.031 1.608-0.143 2.437-0.225s1.659-0.174 2.488-0.307c0.901-0.133 1.792-0.317 2.683-0.512 0.727-0.154 1.454-0.287 2.171-0.471 0.963-0.236 1.925-0.543 2.877-0.85 0.625-0.205 1.27-0.389 1.874-0.614 0.963-0.338 1.915-0.748 2.857-1.157 0.614-0.256 1.219-0.512 1.833-0.788 0.87-0.41 1.731-0.881 2.591-1.341 0.655-0.369 1.321-0.727 1.976-1.116 0.748-0.451 1.475-0.932 2.202-1.423 0.748-0.492 1.475-1.014 2.181-1.536 0.307-0.236 0.604-0.41 0.911-0.645l51.958-40.765c72.141-56.607 138.486-120.996 197.233-191.396l15.749-18.893c18.432-22.026 15.462-54.825-6.595-73.226v0zM558.326 722.842c58.726 0 106.353 47.626 106.353 106.373 0 58.726-47.626 106.353-106.353 106.353-58.747 0-106.373-47.626-106.373-106.353 0-58.747 47.626-106.373 106.373-106.373v0z" />
<glyph unicode="&#xe922;" glyph-name="judo" d="M543.212 220.867c6.574-6.062 15.145-9.257 23.777-9.257 6.932 0 13.834 1.997 19.907 6.134l134.472 91.587c7.086 4.936 12.288 12.196 14.346 20.654l24.402 96.942c4.076-4.321 6.482-7.772 6.134-9.411l25.354-72.038-111.288-86.917c-8.305-6.492-14.019-15.565-16.097-25.856l-50.954-243.354c-5.007-23.869 10.383-47.401 34.335-52.398 3.031-0.625 6.042-0.881 9.073-0.881 20.5 0 38.922 14.275 43.325 35.205l47.493 227.461 28.273 22.047-6.308-11.602c-7.352-13.302-7.26-29.491 0.174-42.793l116.060-207.657c8.12-14.52 23.183-22.733 38.656-22.733 7.352 0 14.787 1.812 21.627 5.601 21.279 11.96 28.959 38.922 17.029 60.283l-104.131 186.276 70.646 129.208c2.171 3.809 3.389 7.885 4.342 11.93 1.905 2.857 3.277 6.154 3.277 9.789v101.949c0 9.851-5.96 22.999-13.302 29.399l-167.526 148.931c-7.352 6.482-22.313 3.451-27.853-4.577l-4.669-8.653c-2.857-2.324-5.448-5.007-7.506-8.305l-94.269-149.176-108.882-81.654c-8.479-6.4-13.148-15.985-13.926-25.774l-30.525 22.671c-5.98 4.403-13.066 6.82-20.5 6.994l-127.212 2.417 32.788 103.7 105.165-20.746c2.918-0.625 5.775-0.86 8.632-0.86 19.19 0 36.659 12.534 42.373 31.549l41.687 138.721c4.403-9.605 10.383-18.504 17.736-25.948 53.955 22.405 100.915 109.742 111.985 131.461 0-0.799 0.266-1.659 0.707-2.529 1.546-3.277 5.622-4.588 8.806-2.949 5.274 2.611 8.12 6.932 9.851 11.694 5.888 1.372 17.91-3.635 25.354-8.479 3.031-1.997 7.168-1.126 9.165 1.997 1.997 3.031 1.126 7.178-1.905 9.165-3.451 2.232-17.736 10.895-30.618 10.803-0.174 7.434-1.731 13.834-2.058 15.319-0.952 3.543-4.669 5.54-8.233 4.588-2.417-0.707-4.137-2.611-4.669-4.936-0.246-1.044-0.246-2.171 0-3.215 1.833-6.554 3.564-21.965-2.744-25.057-0.532-0.266-0.952-0.707-1.485-1.126-14.346 9.943-31.724 15.985-50.586 15.985-17.469 0-33.649-5.181-47.401-13.834l5.888 19.64c6.994 23.45-6.226 48.179-29.665 55.173-23.357 7.014-48.087-6.216-55.173-29.645l-69.96-232.899-97.208 19.19 88.556 110.612c12.8 16.005 12.974 38.656 0.44 54.835l-161.475 207.37c-15.053 19.282-42.813 22.825-62.095 7.793-19.282-15.053-22.733-42.813-7.793-62.095l140.032-179.876-112.425-140.288c-4.669-5.98-7.526-12.708-8.745-19.722l-28.273-73.503c-4.076-8.899-9.011-23.869-10.824-33.475l-3.635-28.539-45.824 64.604 13.66 141.67c1.905 19.528-12.349 36.844-31.816 38.656-19.374 1.987-36.751-12.38-38.656-31.836l-14.971-154.798c-0.86-8.479 1.464-16.957 6.308-23.869l90.634-127.744c3.871-5.54 9.257-9.411 15.124-11.93 2.345-1.546 5.028-2.765 8.387-2.765l4.403-0.092c0.266 0 0.625-0.061 0.952-0.061 0.266 0 0.44 0.061 0.707 0.061l84.746-1.106c1.731-0.266 3.451-0.532 5.356-0.625l163.369-3.103 104.899-77.926c0.87-0.686 1.915-0.952 2.775-1.454v0zM555.674 310.282l114.063 85.524c3.369 2.591 6.308 5.806 8.653 9.431l5.356 8.479-13.507-53.443-102.636-69.98-20.675 15.411c3.041 1.188 5.98 2.499 8.745 4.577v0zM219.965 96.748c48.507-9.492 95.642 21.965 105.247 70.584 0.932 4.762 1.106 9.503 1.28 14.254-0.686 0-1.464 0.092-2.171 0.44-50.586 21.094-138.373-8.479-169.411-20.326 1.393 0.86 2.499 2.171 2.949 3.809 1.126 3.451-0.952 7.178-4.403 8.212-1.044 0.266-2.079 0.42-3.031 0.512 31.99 12.288 119.685 41.779 175.391 21.187-4.588 37.458-32.256 69.54-71.27 77.24-48.507 9.503-95.642-22.047-105.247-70.666-1.812-9.339-1.731-18.596-0.594-27.587-3.809 0.092-7.26-0.86-10.476-2.591-5.274 3.031-10.629 14.879-12.708 23.45-0.86 3.543-4.495 5.693-8.038 4.823-3.543-0.86-5.714-4.495-4.844-8.038 0.952-3.983 5.448-20.060 14.971-28.713-4.936-5.53-8.12-11.336-8.837-12.616-1.731-3.297-0.42-7.26 2.765-8.919 2.263-1.198 4.854-0.952 6.84 0.358 0.86 0.594 1.638 1.393 2.171 2.417 3.103 5.98 12.349 18.422 19.108 16.445 1.126-0.358 2.232-0.266 3.277 0-0.42-0.266-1.044-0.44-1.546-0.625 8.888-31.396 34.324-56.893 68.577-63.652v0zM580.741 590.121c14.787-10.537 32.614-16.845 52.163-16.845 49.459 0 89.6 40.028 89.6 89.6 0 25.59-10.803 48.599-28.027 64.85-8.489-17.121-55.265-108.268-113.736-137.605v0z" />
<glyph unicode="&#xe923;" glyph-name="karate" d="M528.845 777.247c49.674-12.984 100.393 16.753 113.316 66.427 12.902 49.592-16.753 100.413-66.427 113.316s-100.413-16.835-113.316-66.427c-12.984-49.674 16.753-100.413 66.427-113.316v0zM836.833 5.028l-18.381 44.616 8.090 3.43-3.174 9.554c-35.553 104.264-72.069 227.451-96.082 311.112 6.605-12.175 13.466-24.177 20.828-35.932 8.325-13.404 22.292 11.192 15.688 21.791-10.875 17.254-20.746 35.226-29.655 53.524 1.147-0.246 2.284-0.481 3.43-0.819 11.694-2.693 18.135-8.991 23.357-19.763 1.802-4.014 4.157-5.816 8.571-5.96 6.38-0.164 13.742 1.782 17.254 7.762 1.884 3.092 3.512 5.96 4.413 9.472 0.236 0.983 0.399 2.028 0.563 3.092 0.164 0.727 0.338 1.239 0.399 1.71 3.676 4.833 5.079 11.858 2.785 17.572-2.284 5.96-8.909 7.762-13.804 3.348-3.267-3.011-5.56-6.523-7.107-10.629-4.977 7.926-11.274 14.643-20.408 18.381-10.291 4.25-21.647 4.577-31.457 10.455-2.529 1.567-5.059 1.628-7.281 0.727-2.447 0.246-4.977-1.208-7.199-3.492-2.191 20.326-4.475 40.684-6.943 60.948 33.987 20.019 67.154 43.295 101.14 71.158 13.158 10.793 20.828 27.29 21.412 46.408 0.727 21.002-7.025 41.247-20.828 54.231-52.869 49.613-116.101 64.963-183.091 81.213l-4.577 1.147c-1.884 0.645-3.912 0.983-5.96 0.983-16.415 0-36.434-24.115-49.592-42.977-11.356 16.916-26.88 35.215-40.366 35.215-3.092 0-6.042-0.819-8.571-2.386-10.875-6.605-20.101-14.623-27.607-23.931h-202.957v-34.406h-57.016c-21.729 0-39.301-17.551-39.301-39.301 0-21.729 17.572-39.281 39.301-39.281h57.016v-27.945h192.338c8.008-55.153 15.35-113.091 21.811-172.462-63.724-16.189-126.392-42.168-186.348-77.302-17.981-10.537-28.928-26.46-31.14-45.005-2.109-5.478-3.594-11.356-4.332-17.398l-26.307-215.357 17.736-3.348-7.762-45.599c-4.669-27.208 13.64-52.931 40.765-57.6 27.208-4.639 53.023 13.66 57.682 40.765l7.444 43.796 17.961-3.43 24.596 201.472c58.419 30.392 151.951 69.356 172.216 77.783 9.472-1.485 19.282-1.802 29.092-0.819l108.984-305.48 11.919 4.977 18.135-44.114c10.455-25.498 39.639-37.663 65.106-27.208 25.498 10.557 37.673 39.741 27.208 65.3v0zM492.155 598.487l-1.403 9.329h-189.358v6.216h0.563c-0.164 0.225-0.338 0.399-0.563 0.645v77.537c0.399 0.317 0.563 0.481 0.563 0.481h-0.563v12.595h192.317l3.174 4.577c5.898 8.325 13.486 15.432 22.548 21.228 6.298-3.594 19.958-20.91 30.239-38.482l9.052-15.432 9.472 15.206c14.469 23.194 33.423 45.261 40.202 46.971l5.898-1.485c64.123-15.524 124.652-30.31 173.363-75.96 9.144-8.602 14.541-23.050 14.039-37.673-0.399-12.82-5.233-23.613-13.466-30.3-30.956-25.416-61.194-46.664-91.924-65.208l-23.112 97.802-21.166-4.977 3.113-12.902-59.228-24.115c-20.101-8.161-29.737-31.119-21.586-51.302 8.182-20.101 31.14-29.737 51.241-21.565l48.855 15.35 4.076-17.152c2.785-22.63 5.315-45.343 7.844-68.055h-173.855c-6.134 53.893-12.902 106.516-20.337 156.672v0zM727.122 34.929l-107.192 300.739-8.991-1.546c-11.356-1.884-22.948-1.884-33.823 0.164l-3.092 0.563-3.031-1.147c-12.001-4.977-119.675-49.336-182.026-82.514l-4.895-2.693-23.214-189.696-91.085 17.234 23.777 195.256c0.563 4.731 1.71 9.052 3.512 13.24l0.727 3.267c1.065 12.175 8.243 22.548 20.664 29.829 61.030 35.697 124.928 61.676 189.696 77.199l9.329 2.212-0.983 9.472c-0.164 0.901-0.246 1.71-0.338 2.611h178.524c21.985-77.783 63.816-222.218 104.909-343.972l-72.468-30.218z" />
<glyph unicode="&#xe924;" glyph-name="kong-fu" d="M840.796 641.812l88.023-68.68c12.073-10.148 30.536-5.356 36.147 9.38l57.539 151.286c2.867 7.537 1.556 16.026-3.43 22.344l-128.061 161.987-50.217-276.316zM189.215 641.812l-49.039 285.42-135.24-171.090c-4.997-6.318-6.298-14.807-3.441-22.344l57.549-151.286c5.612-14.725 24.074-19.528 36.147-9.38l94.024 68.68zM639.713 952.689h-240.364l115.364-218.747 125 218.747zM342.948 952.689h-135.578c-10.926 0-19.22-9.83-17.408-20.593l88.187-521.226h121.16v114.493c0 4.332 1.137 8.612 3.287 12.37l82.78 144.886-142.428 270.070zM449.198 410.86h305.388l88.197 521.226c1.812 10.772-6.482 20.593-17.408 20.593h-128.195l-247.982-433.94v-107.878zM639.375 352.532l86.62-86.641c9.738-9.738 9.738-25.518 0-35.277-4.874-4.864-11.264-7.301-17.633-7.301-6.38 0-12.769 2.437-17.644 7.301l-85.402 85.412v-130.714c0-13.67-10.537-25.569-24.187-25.979-14.131-0.42-25.713 10.895-25.713 24.934v168.264h-106.22v-409.201h368.026c13.906 0 24.207 12.923 21.074 26.47l-88.351 382.73h-110.572zM215.501-56.689h183.808v409.221h-116.511l-88.361-382.73c-3.123-13.548 7.158-26.491 21.064-26.491v0z" />
<glyph unicode="&#xe925;" glyph-name="polo" d="M39.916 127.181c1.106 0.44 108.82 45.844 108.995 157.706 0.092 13.773 3.727 22.866 11.336 27.73 17.766 11.264 53.985-1.219 66.478-6.943 1.905-0.952 3.881-0.952 5.704-0.512v-25.047c0-9.533-0.86-24.955-1.823-34.406l-4.147-38.042c-0.952-8.141-5.99-21.053-10.824-27.638l-147.661-200.581c-10.383-14.111-7.782-24.515-5.274-29.46s9.359-13.261 26.86-13.261h27.546c22.272 0 50.688 13.619 64.727 30.945l154.225 191.314c3.994 4.854 13.353 8.765 20.357 7.547 23.050-3.635 71.578-9.718 138.209-9.718 7.537-8.233 17.592-13.865 29.276-15.063 16.128-1.731 31.181 5.284 41.503 17.234 9.533 0.604 18.719 1.311 27.372 2.089l-16.456-168.622-23.91 2.775c-29.102 3.308-53.371-4.413-54.057-17.326-0.707-12.913 22.272-26.593 51.374-30.495l77.722-10.404c29.030-3.901 54.497 3.994 56.76 17.674 2.324 13.681-19.497 27.464-48.62 30.853l-24.003 2.775 17.234 176.824c47.575 6.584 77.568 15.862 95.396 23.491 5.724 2.509 13.865 1.311 17.408-2.601l114.545-125.901c3.727-4.086 4.086-11.53 0.707-15.944l-49.132-64.901c-10.67-14.019-8.049-24.422-5.632-29.276 2.417-4.946 9.185-13.261 26.767-13.261h29.809c22.088 0 50.862 12.995 65.505 29.727l61.082 69.673c9.359 10.65 9.605 27.546 0.604 38.461l-147.978 179.968c-4.506 5.458 0.87 13.148 1.997 14.725 5.458 7.188 8.315 15.237 8.499 23.91 0.174 6.676-1.823 14.285-3.809 21.74-1.219 5.038-2.591 10.138-2.857 13.681-1.556 18.637-0.266 37.53 1.311 51.128 13.865-10.65 32.829-11.448 48.087-12.042 6.502-0.266 12.728-0.512 17.5-1.464 6.318-1.219 20.787-10.404 28.59-15.258l2.683-1.731c18.872-11.776 41.052-12.38 51.907-0.952 9.964 10.67 9.779 29.368-0.44 50.176-2.683 5.366-5.632 11.356-8.141 16.722-3.901 8.049-7.363 22.272-8.315 30.833-2.089 17.766-5.55 34.14-10.496 48.794-2.591 7.782-4.413 21.32-2.929 29.542l5.018 27.546c2.089 11.090 0.092 20.961-5.55 27.638-7.455 8.919-20.541 11.448-34.642 6.236l-27.904-10.23c-6.943-2.591-20.961-3.973-30.321-3.021-5.12 0.42-10.496 0.686-16.036 0.686-43.766 0-83.354-17.5-114.452-50.596-26.952-28.764-51.548-53.033-80.845-71.158l5.816 60.068c0.686-0.092 1.464-0.266 2.171-0.266 16.456 0 31.191 11.51 34.642 28.232 4.086 19.169-8.233 37.949-27.372 42.035l-140.984 29.46-27.73 87.235c-1.106 3.389-2.775 6.431-4.68 9.206l-0.092 2.683c-3.195 9.185-13.691 15.329-23.286 13.681l-5.55-0.952c-3.635 0-7.363-0.358-10.998-1.556-0.625-0.174-1.126-0.532-1.751-0.707l-79.186-13.865c-9.605-1.731-17.060-10.998-16.64-20.787l11.090-261.755c-70.093-2.263-106.496-22.446-124.856-40.55-0.246 0.174-0.42 0.358-0.594 0.42-2.857 1.137-70.093 28.856-123.034 5.386-24.084-10.762-41.318-30.167-51.128-57.979l-5.632-15.923c-32.922-93.071-49.377-139.766-38.973-182.303 0.594-2.509 2.243-4.588 4.588-5.816 1.198-0.604 2.601-0.952 3.973-0.952 1.106 0.020 2.324 0.297 3.369 0.717v0zM232.335 322.57l0.092 0.686v-0.686h-0.092zM627.538 518.298l-8.315-85.268c-17.674-6.656-37.53-11.336-60.314-14.019l-36.905 22.784c-8.315 5.1-14.725 17.234-14.213 27.034l-2.929 75.1 122.675-25.631zM469.32-4.004c0-19.917-16.189-36.137-36.137-36.137-19.917 0-36.137 16.21-36.137 36.137 0 19.937 16.21 36.137 36.137 36.137 19.948 0 36.137-16.189 36.137-36.137v0zM507.443 882.371c-3.635 5.816-9.185 12.308-17.326 17.674-14.664 9.718-32.85 70.625-100.26 58.317-48.261-8.827-65.853-83.692-69.222-110.213-1.044-8.049 4.321-13.681 11.684-14.377 0-0.358-0.174-0.594-0.174-0.952-3.553-45.138 30.259-84.664 75.397-88.125 45.138-3.553 84.644 30.167 88.197 75.397 1.126 14.725-1.976 28.682-7.875 41.144l9.001 1.638c9.626 1.731 15.77 11.182 10.578 19.497v0z" />
<glyph unicode="&#xe926;" glyph-name="special-needs" d="M829.553 309.821c-7.373 29.481-33.751 50.063-64.143 50.063h-128.451c-18.176 29.839-41.861 56.003-69.878 77.046v187.392c0 49.828-53.361 80.292-95.683 59.136l-132.219-66.109c-22.538-11.264-36.321-33.925-36.321-59.136v-84.552c-0.41-0.143-0.829-0.184-1.229-0.348-106.476-41.585-175.268-142.336-175.268-256.676 0-151.89 123.566-275.456 275.456-275.456 152.914 0 281.344 126.618 274.975 286.474h37.007l53.586-236.411c8.827-35.246 44.319-57.119 80.189-48.097 35.348 8.837 56.924 44.81 48.097 80.189l-66.12 286.484zM401.818 7.291c-115.436 0-209.347 93.911-209.347 209.347 0 78.346 42.732 147.958 110.397 184.136v-84.972c0-36.454 29.43-66.109 65.894-66.109s66.109 29.655 66.109 66.109v108.206c1.638-0.573 3.287-1.137 5.048-1.464 99.226-18.227 171.264-104.827 171.264-205.906-0.020-115.425-93.932-209.347-209.367-209.347zM611.164 855.716c0 54.682-44.483 99.164-99.164 99.164s-99.164-44.483-99.164-99.164 44.483-99.164 99.164-99.164 99.164 44.483 99.164 99.164z" />
<glyph unicode="&#xe927;" glyph-name="speedball" d="M656.65 960h78.766v-967.731h-78.766v967.731zM420.342-7.731h551.383v-56.269h-551.383v56.269zM409.098 566.149c0-31.076-25.192-56.269-56.269-56.269s-56.269 25.192-56.269 56.269c0 31.076 25.192 56.269 56.269 56.269s56.269-25.192 56.269-56.269zM371.353 615.147l326.324 326.324 7.958-7.958-326.324-326.324-7.958 7.958zM264.008 593.146c39.479-59.575 29.485-135.7-22.321-170.030s-125.806-13.865-165.285 45.71c-39.479 59.575-29.485 135.7 22.321 170.030s125.806 13.865 165.285-45.71zM213.611 424.753l37.525 24.866 93.243-140.708-37.525-24.866-93.243 140.708z" />
<glyph unicode="&#xe928;" glyph-name="squash" d="M926.884 121.62c0-62.413-50.616-113.009-113.029-113.009-62.423 0-113.019 50.596-113.019 113.009 0 62.423 50.596 113.019 113.019 113.019 62.413 0 113.029-50.596 113.029-113.019v0zM613.427 299.51c-17.203 0.031-34.079 1.7-50.442 4.884l-247.286-96.625 32.236-32.236 345.457 135.649c-25.856-7.649-52.582-11.674-79.442-11.674h-0.522zM6.502 21.422c-12.974-12.954-5.847-42.824 15.237-63.918 11.264-11.284 25.283-18.985 38.431-21.135 6.277-1.034 17.971-1.638 25.477 5.898l218.716 218.716-79.165 79.165-218.696-218.726zM271.37 252.099l96.778 247.265c-3.185 16.323-4.833 33.147-4.864 50.289-0.051 27.064 3.994 53.975 11.684 80.015l-135.68-345.569c0.154-0.133 0.317-0.215 0.461-0.369l31.621-31.631zM596.593 403.968l-51.118 51.098-66.939-66.908c19.753-16.445 41.953-28.672 65.587-36.649l52.47 52.46zM415.273 480.369c7.987-23.634 20.214-45.824 36.649-65.587l66.939 66.929-51.118 51.098-52.47-52.439zM441.088 559.462l-33.188 33.188c-4.26-23.009-4.997-46.162-2.355-68.721l35.543 35.533zM692.142 654.991l-51.118 51.118 46.684 46.705 51.118-51.118-46.684-46.705zM587.756 706.13l-68.905 68.905-42.813-50.596 65.014-65.014 46.705 46.705zM618.813 581.663l-51.118 51.118 46.684 46.705 51.118-51.118-46.684-46.705zM734.423 852.777l-79.176 79.176c-7.178-5.663-13.865-12.093-19.907-19.231l-24.863-29.389 77.24-77.24 46.705 46.684zM714.342 779.448l46.705 46.684 51.118-51.098-46.705-46.705-51.118 51.118zM993.444 746.813l-0.358 0.369-49.9-49.9 71.987-71.987c5.14 13.015 8.151 26.747 8.724 40.704 1.3 31.181-9.523 59.884-30.454 80.814v0zM966.461 773.837l-49.9-49.9-51.118 51.118 49.9 49.91 51.118-51.128zM696.556 450.662l-46.705-46.694 48.22-48.22c21.002 7.885 41.431 18.821 60.682 32.707l-62.198 62.208zM572.109 481.72l46.684 46.684 51.118-51.118-46.684-46.684-51.118 51.118zM838.789 455.066l-68.905 68.925-46.705-46.705 65.024-65.014 50.586 42.793zM918.241 522.291l-75.018 75.039-46.705-46.705 71.148-71.127 50.575 42.793zM869.847 623.954l77.24-77.24 29.389 24.863c7.137 6.042 13.578 12.718 19.231 19.886l-79.165 79.176-46.694-46.684zM656.425 344.125l-33.198 33.198-35.533-35.533c22.548-2.642 45.701-1.905 68.731 2.335v0zM514.427 632.791l-62.198 62.198c-13.896-19.251-24.812-39.68-32.707-60.682l48.22-48.21 46.684 46.694zM545.485 508.344l-51.098 51.098 46.684 46.705 51.118-51.118-46.705-46.684zM792.095 701.696l46.705 46.684 51.118-51.098-46.705-46.705-51.118 51.118zM661.084 779.448l-75.018 75.028-42.813-50.596 71.148-71.127 46.684 46.694zM692.142 601.733l51.098-51.098-46.684-46.705-51.118 51.118 46.705 46.684zM816.579 623.954l-46.684-46.684-51.118 51.118 46.705 46.684 51.098-51.118zM810.957 929.331l-0.358 0.348c-19.804 19.804-46.572 30.556-75.807 30.556-1.669 0-3.328-0.031-5.018-0.102-13.947-0.594-27.689-3.604-40.714-8.724l71.987-71.987 49.91 49.91zM888.699 851.579l-49.889-49.9-51.118 51.098 49.9 49.9 51.108-51.098z" />
<glyph unicode="&#xe929;" glyph-name="swimming" d="M948.89 532.767c0-89.221-72.335-161.556-161.556-161.556s-161.546 72.325-161.546 161.556c0 89.221 72.325 161.536 161.546 161.536s161.556-72.315 161.556-161.536v0zM439.357 502.61l-202.281-144.896c8.755 1.792 18.391 2.898 29.123 2.898 48.476 0 75.356-21.514 93.143-35.748 13.025-10.435 17.418-13.947 31.007-13.947s17.981 3.523 31.007 13.947c17.787 14.234 44.657 35.748 93.133 35.748 48.486 0 75.356-21.514 93.143-35.748 13.025-10.435 17.428-13.947 31.017-13.947s17.981 3.523 31.007 13.947c5.929 4.741 12.902 10.291 21.309 15.585l-141.435 239.012-193.249 144.241-220.785-62.628-27.771-127.386 229.601 45.097 102.031-76.175zM915.466 285.645c-13.036-10.435-17.428-13.947-31.027-13.947s-17.992 3.512-31.017 13.947c-17.787 14.234-44.657 35.758-93.143 35.758-48.476 0-75.356-21.524-93.143-35.758-13.025-10.435-17.428-13.947-31.007-13.947-13.599 0-17.992 3.512-31.017 13.947-17.787 14.234-44.657 35.758-93.143 35.758s-75.356-21.524-93.133-35.758c-13.025-10.435-17.428-13.947-31.017-13.947-13.578 0-17.971 3.512-31.007 13.947-17.777 14.234-44.646 35.758-93.133 35.758s-75.356-21.524-93.143-35.758c-13.025-10.435-17.418-13.947-31.007-13.947s-17.981 3.512-31.017 13.947c-17.777 14.234-44.646 35.758-93.133 35.758v-99.4c13.588 0 17.981-3.512 31.007-13.947 17.787-14.234 44.657-35.758 93.143-35.758s75.356 21.524 93.133 35.758c13.036 10.435 17.428 13.947 31.017 13.947s17.981-3.512 31.007-13.947c17.787-14.234 44.657-35.758 93.143-35.758s75.346 21.524 93.133 35.758c13.025 10.435 17.428 13.947 31.007 13.947 13.588 0 17.992-3.512 31.017-13.947 17.787-14.234 44.657-35.758 93.143-35.758 48.476 0 75.356 21.524 93.133 35.758 13.036 10.435 17.428 13.947 31.017 13.947 13.599 0 17.992-3.523 31.017-13.947 17.787-14.234 44.657-35.758 93.143-35.758s75.366 21.524 93.153 35.758c13.025 10.435 17.428 13.947 31.017 13.947v99.4c-48.486 0-75.356-21.524-93.143-35.758v0z" />
<glyph unicode="&#xe92a;" glyph-name="synchronised-swimming" d="M142.868 234.127c5.612 4.69 16.978 5.356 23.071 1.413l90.798-58.86c23.501-15.278 58.030-14.039 80.353 2.765l73.329 55.265c6.103 4.598 18.903 5.202 25.426 1.004l94.392-59.525c22.907-14.551 57.426-14.295 80.179 0.43l90.798 58.921c6.851 4.434 20.654 4.362 27.423-0.061l88.637-58.46c23.327-15.473 57.938-14.551 80.435 2.099l101.161 74.742c10.701 7.936 12.974 23.071 5.028 33.772-7.967 10.701-23.009 12.954-33.802 5.007l-101.161-74.742c-6.011-4.516-18.729-4.833-25.088-0.666l-88.637 58.429c-22.815 15.073-57.344 15.309-80.261 0.338l-90.798-58.86c-7.025-4.516-21.146-4.598-28.17-0.174l-94.392 59.525c-23.583 14.899-58.030 13.466-80.261-3.256l-73.329-55.265c-6.011-4.598-18.647-5.007-24.996-0.84l-90.798 58.86c-23.849 15.565-58.368 13.466-80.261-4.772l-87.89-73.277c-10.271-8.54-11.622-23.757-3.082-33.946 4.751-5.775 11.622-8.714 18.555-8.714 5.437 0 10.957 1.843 15.391 5.612l87.951 73.236zM361.595 442.327v-48.507h74.834c18.903 0 29.348 10.875 29.348 24.248s-10.445 24.248-29.348 24.248h-74.834zM298.22 712.878c-4.854-68.301-16.22-224.655-23.419-260.536-0.41-2.079-10.189-52.244-8.366-101.417l2.929-77.844 25.426-16.456 56.596 42.639v413.44c0 18.985-11.366 28.017-25.324 28.017-14.060 0-26.429-9.032-27.843-27.843v0zM219.628 393.83h33.116c1.843 19.302 4.342 42.148 5.673 50.002l-105.021 2.591c-23.992 0-42.148-17.981-42.148-32.195 0-24.34 7.793-34.437 17.654-47.237 1.925-2.417 3.922-5.089 6.011-8.028l23.583-32.768c18.79 0.573 37.693-3.85 53.084-13.804l41.052-26.665-1.843 50.924c-0.174 2.765-0.174 5.519-0.256 8.284-8.858 8.858-20.654 19.732-36.454 33.26-7.516 6.533-8.694 10.639-8.202 11.96 0.543 1.249 3.963 3.676 13.752 3.676v0zM993.946 418.079c0 13.373-10.465 24.248-29.43 24.248h-74.742v-48.507h74.742c18.903 0.010 29.43 10.875 29.43 24.259v0zM826.388 712.878c-4.946-68.301-16.22-224.655-23.419-260.536-0.43-2.079-10.209-52.244-8.366-101.417l2.847-77.844 25.426-16.456 56.678 42.639v413.44c0 18.985-11.366 28.017-25.405 28.017-13.967 0-26.429-9.032-27.761-27.843v0zM747.796 393.83h33.116c1.751 19.302 4.26 42.148 5.673 50.002l-105.093 2.591c-23.992 0-42.148-17.981-42.148-32.195 0-24.34 7.793-34.437 17.654-47.237 1.905-2.417 4.004-5.089 6.103-8.028l23.562-32.768c18.811 0.573 37.714-3.85 53.105-13.804l41.052-26.665-1.925 50.924c-0.082 2.765-0.174 5.519-0.174 8.284-8.858 8.858-20.654 19.732-36.454 33.26-7.619 6.533-8.694 10.639-8.202 11.96 0.44 1.249 3.953 3.676 13.732 3.676v0z" />
<glyph unicode="&#xe92b;" glyph-name="table-tennis" d="M104.991-49.408c-12.739-12.698-33.341-12.698-46.070 0l-45.292 45.261c-11.663 12.974-11.295 32.758 0.85 45.281l261.837 261.816c24.996 25.006 65.536 25.006 90.532 0 25.006-24.996 25.006-65.536 0-90.532l-261.857-261.827zM611.932 147.425c-53.647-11.223-109.036-11.172-162.673 0.123-31.427 6.973-63.98 7.188-95.488 0.614l38.666 38.666c25.364 25.313 35.287 62.239 26.030 96.85s-36.301 61.655-70.912 70.912c-34.611 9.257-71.537-0.666-96.85-26.030l-38.943-38.943c6.676 31.683 6.482 64.43-0.573 96.041-11.479 53.729-11.479 109.281-0.020 163.021 1.147 6.42 2.693 12.8 4.229 18.903l415.836-415.672c-6.359-1.618-12.718-3.297-19.302-4.485v0zM716.329 181.381c-8.059-3.502-16.138-7.014-24.719-10.312-6.451-2.621-13.107-4.946-19.538-7.096l-1.29-0.42-443.29 443.126c2.406 6.932 4.71 13.814 7.629 20.972 3.287 8.161 6.574 15.964 10.568 24.32 25.938 56.996 62.044 108.79 106.537 152.852 80.282 82.678 186.675 135.014 301.148 148.152 107.786 10.506 205.076-21.524 273.592-90.030 104.53-104.52 120.617-277.166 42.609-434.596-64.686 35.144-144.906 22.467-195.604-30.894s-59.259-134.124-20.859-196.925c-11.725-6.707-23.788-13.158-36.782-19.149v0zM892.15 158.29c-51.251 0-97.464 30.874-117.084 78.234-19.62 47.35-8.776 101.857 27.474 138.107 36.239 36.239 90.747 47.084 138.107 27.474 47.35-19.62 78.234-65.823 78.234-117.084-0.082-69.96-56.771-126.648-126.73-126.73z" />
<glyph unicode="&#xe92c;" glyph-name="taekwondo" d="M828.17 301.036c2.877-16.364 17.101-27.853 33.116-27.853 1.894 0 3.871 0.143 5.847 0.399 18.319 3.195 30.566 20.634 27.433 38.963l-37.468 216.443c-1.157 6.4-4.106 12.329-8.54 17.080l-183.081 197.724c-12.667 13.629-33.956 14.367-47.585 1.812-13.65-12.667-14.387-33.956-1.812-47.585l98.683-106.588-83.159-28.672-79.114 152.351c14.623 11.274 17.418 32.225 6.226 46.93-8.796 11.592-23.583 15.862-36.731 11.735l-27.853 53.668c-12.892 24.74-43.377 34.355-68.035 21.545-24.822-12.913-34.437-43.397-21.627-68.137l34.857-67.041-60.733-46.029-67.543 28.529c-4.772 2.038-9.615 2.796-14.449 2.55v0.164l-0.84-0.164c-4.106-0.338-8.12-1.321-11.827-3.052l-121.692-30.566c-11.418-0.901-22.19-7.465-27.617-18.493l-90.88-183.501c-8.305-16.681-1.475-36.813 15.206-45.128 4.751-2.376 9.841-3.533 14.868-3.533 12.411 0 24.32 6.902 30.147 18.739l68.28 137.81 26.061-126.3-59.341-217.682-63.252-113.633c-13.568-24.402-4.772-55.132 19.548-68.7 7.803-4.362 16.2-6.42 24.484-6.42 17.756 0 35 9.38 44.216 25.979l66.222 118.979c1.976 3.615 3.533 7.404 4.608 11.336l46.766 171.489 132.782-127.611 5.171-114.708c1.239-27.116 23.583-48.241 50.381-48.241 0.819 0 1.556 0 2.294 0.082 27.935 1.219 49.48 24.822 48.241 52.675l-6.083 134.932c-0.563 12.892-6.083 25.139-15.442 34.099l-146.35 140.677-39.526 184.402 57.344-24.238c4.27-1.812 8.704-2.632 13.148-2.632 7.148 0 14.305 2.294 20.296 6.82l66.98 50.78 99.922-192.297v-362.875c0-27.935 22.589-50.534 50.442-50.534s50.463 22.589 50.463 50.534v329.206l129.331 31.386 27.218-157.604zM262.328 778.291c0-43.796-35.512-79.288-79.309-79.288s-79.288 35.492-79.288 79.288 35.492 79.309 79.288 79.309c43.807 0 79.309-35.512 79.309-79.309v0zM983.798 626.452c0-43.817-35.492-79.309-79.288-79.309s-79.309 35.492-79.309 79.309c0 43.796 35.512 79.288 79.309 79.288s79.288-35.492 79.288-79.288v0z" />
<glyph unicode="&#xe92d;" glyph-name="tennis" d="M689.060 818.094c-1.085 35.942-15.258 71.69-42.691 99.113-27.525 27.535-63.16 41.697-99.205 42.793 4.055-31.406 20.787-65.27 48.824-93.184 27.904-28.037 61.665-44.667 93.071-48.722v0zM283.965 798.403h62.075l-23.245 30.495h-62.106l23.276-30.495zM573.501 635.607l-23.368 30.495h-65.044l23.265-30.495h65.147zM274.862 635.607l-23.276 30.495h-62.382l23.276-30.495h62.382zM407.747 635.607h62.28l-23.265 30.495h-62.177l23.163-30.495zM369.521 635.607l-23.173 30.495h-56.525l23.173-30.495h56.525zM346.757 715.909h62.177l-23.368 30.495h-62.085l23.276-30.495zM308.531 715.909l-23.276 30.495h-56.422l23.173-30.495h56.525zM526.479 479.539h62.382l-23.265 30.618h-62.382l23.265-30.618zM408.422 510.157l23.265-30.618h56.453l-23.276 30.618h-56.443zM269.814 510.157h-65.075l23.572-30.618h64.87l-23.368 30.618zM308.019 510.157l23.368-30.618h62.106l-23.276 30.618h-62.198zM332.38 559.841l-23.173 30.525h-62.28l23.265-30.525h62.188zM465.388 559.841h62.28l-23.265 30.525h-62.28l23.265-30.525zM427.059 559.841l-23.173 30.525h-56.556l23.265-30.525h56.463zM208.527 590.356h-65.27l23.47-30.525h65.178l-23.378 30.525zM268.124 427.571l23.368-30.597h64.563l-23.276 30.597h-64.655zM432.988 427.571h-61.983l23.265-30.597h61.983l-23.265 30.597zM289.823 666.102l-37.816 49.807h-38.226l37.816-49.807h38.226zM408.422 510.157l-37.816 49.684h-38.226l37.847-49.684h38.195zM347.331 590.356l-34.345 45.251h-38.124l34.345-45.251h38.124zM393.492 479.539l39.496-51.968h38.124l-39.414 51.968h-38.205zM270.203 559.841h-38.298l37.919-49.684h38.205l-37.827 49.684zM293.192 479.539l39.598-51.968h38.226l-39.619 51.968h-38.205zM246.927 590.356l-34.447 45.251h-38.328l34.376-45.251h38.4zM565.586 510.157h38.4l-37.919 49.684h-38.4l37.919-49.684zM470.026 635.607l34.376-45.251h38.4l-34.447 45.251h-38.328zM384.573 666.102l-37.816 49.807h-38.226l37.816-49.807h38.226zM464.876 510.157h38.328l-37.816 49.684h-38.328l37.816-49.684zM488.151 479.539l39.516-51.968h38.205l-39.393 51.968h-38.328zM403.886 590.356h38.226l-34.376 45.251h-38.226l34.376-45.251zM323.482 746.414l-39.516 51.988h-38.226l39.516-51.988h38.226zM930.662 35.246l-179.108 202.004 0.481 0.41-2.079 1.372-42.076 47.534c-4.157 4.659-8.919 8.212-13.967 11.305-23.757 36.833-48.015 94.956-49.51 179.016 7.127 25.344 10.496 52.47 9.81 81.091-1.188 44.872-12.472 90.112-32.092 132.977-1.475-0.993-2.97-1.567-4.465-2.458 10.117 6.031 19.896 12.954 28.621 21.668 25.149 25.047 39.219 57.037 42.179 89.815-35.84 4.157-74.066 22.487-105.452 53.965-31.386 31.386-49.715 69.612-53.965 105.452-32.676-2.97-64.666-17.132-89.815-42.179-8.899-8.817-15.739-18.708-21.873-29-36.045 14.244-73.39 22.18-110.316 22.18-56.33 0-107.53-17.92-147.907-51.692-110.326-92.498-107.366-278.559 6.81-414.812 63.57-75.95 151.204-122.972 237.947-129.812l-0.102-1.393c1.29-0.072 111.38-6.134 209.613-98.13 1.597-2.355 3.164-4.844 5.243-7.127l222.72-251.412c21.873-24.668 59.494-26.819 84.265-4.946 24.637 21.78 26.921 59.505 5.038 84.173v0zM596.972 678.093c-3.85-1.597-7.731-2.99-11.581-4.178 3.85 1.188 7.803 2.683 11.581 4.178v0zM423.885 358.062l-29.604 38.912h-38.226l26.44-34.683c-47.636 8.724-94.751 31.304-135.946 65.27h21.576l-39.793 51.968h-32.778c-7.936 9.912-15.155 20.101-21.873 30.618h31.078l-38.021 49.684h-19.292c-10.598 25.068-17.848 50.627-21.391 75.766h48.108l-23.265 30.495h-27.433c-0.276 11.479 0.41 22.661 1.597 33.761l25.836-33.761h38.328l-37.816 49.807h-23.951c1.475 8.008 3.451 15.944 5.929 23.654l18.022-23.654h62.382l-23.265 30.495h-54.958c5.55 15.636 12.677 30.188 21.873 43.571l33.085-43.571h38.328l-39.516 51.988h-25.446c4.26 5.345 8.724 10.598 13.66 15.442l11.786-15.442h56.422l-23.173 30.495h-27.924c28.314 21.473 62.761 33.761 100.884 35.738l27.249-35.738h38.103l-26.132 34.345c21.975-2.56 44.052-8.417 65.649-16.937-1.495-6.236-2.765-12.575-3.369-18.913 35.84-4.26 74.066-22.559 105.554-53.965 31.304-31.386 49.807-69.612 53.862-105.554 7.045 0.707 14.070 2.079 20.992 3.779-6.922-1.7-13.937-3.072-20.992-3.779l-22.661 19.517c-7.322 25.354-22.077 50.975-44.155 73.083-28.037 28.006-61.798 44.636-93.184 48.691 0.379-11.581 2.56-23.276 5.734-34.652 0 0.205 0 0.307 0 0.307l-18.022 23.47h-38.124l39.516-51.886h27.73c0 0.102 0 0.102-0.102 0.307 0.102-0.205 0.102-0.205 0.205-0.307h-0.102c0.102-0.102 0.205-0.205 0.205-0.307 5.53-10.598 12.37-20.582 20.685-29.911 0.102-0.072 0.205-0.276 0.307-0.379 1.669-1.874 2.97-3.953 4.741-5.755 5.345-5.345 11.203-9.708 17.039-13.967-5.827 4.178-11.684 8.622-17.039 13.967-1.772 1.802-3.072 3.881-4.741 5.755h-25.549l37.816-49.807h38.328l-16.937 22.18c-0.102 0-0.205 0.102-0.205 0.205 21.699-12.974 45.855-20.408 70.4-21.094-0.891 6.615-2.56 13.363-4.536 19.999l16.323-21.289h33.587c10.67-24.668 18.196-50.115 22.077-75.643h-62.996l23.276-30.597h42.691c0-1.014 0.102-2.007 0.102-2.99 0.481-16.22-0.707-31.785-3.164-46.715h-1.7l1.29-1.802c-5.448-30.495-17.234-57.825-34.345-80.681h-5.069l2.386-3.164c-6.339-8.038-13.363-15.636-21.187-22.487l-19.395 25.651h-56.556l23.265-30.597h46.95c-31.683-25.446-71.793-39.014-116.152-39.014-0.42 0.020-0.922 0.123-1.311 0.123v0zM407.265 867.809c0 0 0-0.102-0.102-0.205 0.102 0.102 0.102 0.205 0.102 0.205v0zM623.718 291.697c-11.786-10.496-18.33-24.535-19.722-39.117-43.469 34.755-87.020 54.958-122.388 66.642 34.068 7.936 65.147 23.071 91.515 45.169 21.473 17.92 38.81 39.7 51.968 64.164 6.339-51.405 20.91-91.689 37.243-122.204-13.773-0.174-27.546-4.946-38.615-14.653v0z" />
<glyph unicode="&#xe92e;" glyph-name="vollyball" d="M134.195 630.231l0.983-7.188c14.592-19.098 47.493-56.986 104.049-96.307l11.018 3.297c18.852 47.186 52.593 116.132 80.558 156.6l0.143 0.215c104.97 164.342 239.708 218.296 334.234 234.609l1.044 14.223c-33.935 11.141-68.291 18.227-105.021 21.658-14.633 1.362-27.873 2.488-41.789 2.488-18.463 0-36.352-2.068-56.279-6.513-61.86-13.804-120.146-48.579-183.45-109.435-66.898-64.328-114.36-133.868-145.111-212.695l-0.379-0.952zM247.347 246.753c60.631-20.931 125.532-31.529 192.87-31.529h0.010c24.31 0 49.469 1.382 74.762 4.106 17.93 1.925 35.594 4.915 54.333 8.069l4.178 0.707 6.021 8.458c-11.51 69.028-38.38 132.915-75.633 179.907l-7.168 2.652c-2.181-0.43-4.342-0.85-6.236-1.208-39.352-7.475-78.787-8.079-116.49-1.802-119.542 19.917-216.883 82.964-289.321 187.361-9.923 14.316-18.483 29.368-25.559 42.199l-13.281-0.901c-27.73-72.151-40.202-154.245-40.714-182.18l1.147-4.065c9.431-14.848 33.116-51.743 49.459-73.37 48.957-64.86 113.428-111.442 191.621-138.404v0zM106.629 685.087c28.631 58.839 63.693 111.647 104.212 156.928l-9.953 10.721c-41.626-32.061-78.49-71.168-109.548-116.285-2.98-4.321-8.151-12.82-11.981-19.19l-0.133-7.342c4.649-8.356 9.503-16.896 14.459-25.344l12.943 0.512zM314.829 558.684c-7.219-16.527-13.404-33.331-19.958-51.149l-1.464-4.004 4.342-9.421c48.015-17.818 98.13-27.228 144.927-27.228 16.824 0 33.239 1.198 48.804 3.574l5.857 4.915c0.707 2.089 1.423 4.168 2.048 6.001 13.076 37.98 32.010 72.294 56.259 102.011 76.646 93.88 179.681 147.077 306.268 158.126 10.67 0.932 22.016 1.372 35.697 1.372 4.526 0 9.083-0.061 13.629-0.123l5.806 11.981c-48.845 59.873-113.92 111.473-137.912 125.788l-4.106 1.024c-17.592-0.819-61.399-3.082-88.238-6.513-80.62-10.291-153.037-43.141-215.276-97.628-65.608-57.436-118.323-131.021-156.682-218.726v0zM972.913 671.508c-2.263 4.731-7.035 13.476-10.639 19.968l-6.308 3.779c-9.503 0.164-19.466 0.215-29.174 0.154l-6.031-11.469c36.659-54.2 64.881-110.961 83.855-168.694l7.014 1.597 0.010-6.656v6.656l7.219 1.659c-6.943 52.091-22.405 103.567-45.947 153.006v0zM458.865-25.815c-47.38 0-93.901 4.792-138.271 14.244l-4.352-13.967c48.507-20.244 100.803-32.84 155.392-37.407 5.212-0.44 15.176-0.717 22.61-0.87l6.431 3.543c3.4 5.591 8.714 14.49 14.838 25.149l-6.851 10.988c-16.763-1.116-33.516-1.679-49.797-1.679v0zM860.18 686.561l-0.727 0.922-6.697 2.714c-23.818-3.092-73.093-12.677-135.404-42.004l-2.642-11.192c31.447-39.916 74.312-103.578 95.396-148.029l0.123-0.236c57.6-110.868 76.82-222.044 57.16-330.455-4.751-26.102-11.725-51.692-20.736-76.063l11.807-8.008c26.511 23.777 49.725 49.93 70.973 79.944 19.794 27.924 33.638 49.070 45.517 86.948 18.964 60.467 17.971 128.328-3.123 213.565-22.292 90.112-58.808 165.97-111.647 231.895v0zM707.246 566.743c-10.691 14.51-22.17 28.252-34.355 42.865l-2.703 3.256-10.332 0.952c-53.832-44.728-95.478-100.127-117.299-155.996l1.331-7.516c1.454-1.659 2.918-3.308 4.188-4.772 26.368-30.331 46.633-63.867 60.242-99.717 43.018-113.295 37.622-229.13-16.056-344.31-7.373-15.79-16.046-30.781-23.572-43.346l7.475-11.028c76.288 12.39 153.498 42.988 177.879 56.607l2.939 3.041c8.069 15.636 27.996 54.692 38.441 79.698 31.375 74.967 39.107 154.112 22.999 235.244-16.988 85.545-54.385 167.977-111.176 245.023v0zM571.914 177.449c-40.868-5.765-92.129-9.339-133.765-9.339-15.923 0-30.116 0.512-42.158 1.556l-0.266 0.010c-124.795 6.124-230.523 45.537-314.245 117.146-20.152 17.244-38.728 36.157-55.245 56.207l-12.861-6.144c7.178-34.867 18.074-68.096 33.28-101.601 14.172-31.16 25.446-53.78 52.183-83.128 42.68-46.848 101.796-80.189 186.061-104.919 59.638-17.5 118.651-26.378 175.391-26.378 27.105 0 54.415 2.007 81.162 5.98l1.126 0.154 5.765 4.424c9.329 22.139 25.876 69.509 31.939 138.107l-8.366 7.926z" />
<glyph unicode="&#xe92f;" glyph-name="waterpolo" d="M398.295 593.971l11.53 69.253c-21.105-9.39-44.534-11.94-67.707-6.83l-11.704-70.318c-1.925-11.561 2.458-23.276 11.5-30.73l125.819-103.711c0 0-46.305-280.924-46.305-280.924 33.587 8.059 69.048-0.102 95.468-21.965 4.792 3.963 18.278 12.462 30.382 17.736 36.26 13.916 78.264 7.793 109.117-17.736 13.988 11.571 30.198 19.118 47.084 22.671v0l-76.892 51.999c3.564 21.402 29.297 176.056 33.014 198.4l71.26-43.469-0.031-133.274c0-18.227 14.828-32.84 32.819-32.84 0 0 0 0 0 0s0 0 0.010 0v0c18.125 0 32.829 14.694 32.829 32.819 0 14.94 0.020 84.009 0.041 151.716 0 11.213-5.724 21.893-15.739 28.037l-102.072 62.188c-7.158 4.362-15.073 7.301-23.337 8.684l-172.718 28.744-84.367 69.55zM668.846 612.27c0-41.957-34.013-75.971-75.971-75.971s-75.971 34.013-75.971 75.971c0 41.957 34.013 75.971 75.971 75.971s75.971-34.013 75.971-75.971zM353.157 687.688c41.4-6.892 80.527 21.094 87.419 62.474 6.892 41.39-21.084 80.527-62.474 87.419-41.38 6.881-80.527-21.084-87.419-62.474s21.084-80.538 62.474-87.419zM950.927 118.538c-8.561-8.561-22.497-8.561-31.058 0-29.901 29.901-78.541 29.901-108.442 0-4.147-4.147-9.667-6.431-15.534-6.431s-11.387 2.284-15.534 6.431c-29.901 29.901-78.541 29.901-108.442 0-8.561-8.561-22.497-8.561-31.058 0-29.901 29.901-78.541 29.901-108.442 0-4.147-4.147-9.667-6.431-15.534-6.431s-11.377 2.284-15.534 6.431c-29.901 29.901-78.541 29.891-108.442 0-4.147-4.147-9.667-6.431-15.534-6.431s-11.377 2.284-15.534 6.431c-29.901 29.901-78.551 29.901-108.442 0-8.561-8.561-22.487-8.561-31.058 0-29.901 29.901-78.541 29.891-108.442 0-8.561-8.561-22.497-8.561-31.058 0-10.691 10.68-28.006 10.68-38.697 0-10.68-10.691-10.68-28.006 0-38.697 14.479-14.479 33.741-22.456 54.221-22.456s39.741 7.977 54.221 22.456c8.561 8.561 22.497 8.561 31.058 0 14.479-14.479 33.741-22.456 54.221-22.456s39.741 7.977 54.221 22.456c4.147 4.147 9.667 6.431 15.534 6.431s11.377-2.284 15.534-6.431c29.901-29.901 78.551-29.901 108.442 0 8.561 8.561 22.497 8.561 31.058 0 29.901-29.901 78.541-29.901 108.442 0 8.561 8.561 22.497 8.561 31.058 0 29.901-29.901 78.541-29.901 108.442 0 4.147 4.147 9.667 6.431 15.534 6.431s11.377-2.284 15.534-6.431c14.479-14.479 33.741-22.456 54.221-22.456s39.741 7.977 54.221 22.456c8.561 8.561 22.487 8.561 31.058 0 29.901-29.901 78.551-29.891 108.442 0 10.691 10.68 10.691 28.006 0 38.687-10.67 10.691-27.986 10.691-38.676 0.010zM1013.76 761.979c0 15.114-12.247 27.361-27.361 27.361-18.227 0-487.025 0-515.267 0 4.413-17.418 4.557-36.209-0.379-54.723 33.536 0 452.7 0 468.347 0l-106.947-429.875c-2.386-9.585 0.584-19.722 7.772-26.501l130.888-123.699c7.311-6.902 18.022-8.806 27.249-4.833 9.236 3.973 15.217 13.056 15.227 23.112l0.471 589.158zM959.037 241.050l-69.919 66.007 69.919 281.068v-347.075zM84.9 734.618c43.919 0 139.674 0 175.555 0-4.751 17.807-4.884 36.588-0.287 54.723-31.508 0-193.946 0-222.566 0-15.114 0-27.361-12.247-27.361-27.361l0.942-583.7c0.020-10.957 6.554-20.849 16.62-25.17s21.74-2.243 29.696 5.284l126.587 119.849c7.188 6.779 10.158 16.916 7.772 26.501l-106.957 429.875zM64.963 241.050v347.075l69.919-281.068-69.919-66.007z" />
<glyph unicode="&#xe930;" glyph-name="yoga" d="M720.732 90.798c-9.247 1.434-16.21 2.437-21.893 3.226-17.428 2.478-22.118 3.133-42.496 9.482-8.038 2.499-39.455 34.202-39.455 96.246 0 79.913 18.975 150.497 27.126 177.132 0.215 0.686 0.737 2.703 1.485 5.427 1.352 4.997 11.244 35.205 11.244 35.205 5.366 15.35 10.926 31.242 14.52 47.565l0.205 0.84c5.448 23.634 23.306 110.029 24.586 229.53 0 12.063-10.025 22.548-16.015 28.826-1.096 1.147-2.068 2.15-2.796 3-5.755 6.697-13.353 14.971-22.129 24.556-5.796 6.308-12.175 13.271-19.036 20.879-10.998 12.155-23.255 23.286-35.113 34.038-14.582 13.22-29.645 26.88-42.035 42.281-18.514 23.030-35.625 63.314-32.522 95.785 0.471 4.895-0.666 9.124-3.215 11.919-2.867 3.113-7.291 4.086-11.192 2.55-3.901 1.546-8.335 0.563-11.151-2.54-2.54-2.796-3.686-7.025-3.215-11.919 3.092-32.471-14.019-72.755-32.522-95.785-12.39-15.401-27.464-29.061-42.045-42.281-11.848-10.762-24.115-21.883-35.103-34.038-6.871-7.608-13.24-14.572-19.036-20.879-8.786-9.585-16.374-17.859-22.149-24.556-0.717-0.85-1.679-1.853-2.785-3-5.99-6.267-16.015-16.753-16.015-28.877 1.27-119.439 19.149-205.834 24.576-229.468l0.205-0.84c3.594-16.323 9.165-32.215 14.51-47.565 0 0 9.892-30.208 11.244-35.205 0.727-2.734 1.27-4.741 1.485-5.427 8.151-26.634 27.126-97.219 27.126-177.132 0-62.044-31.416-93.747-39.455-96.246-20.378-6.349-25.068-7.014-42.516-9.482-5.673-0.799-12.636-1.792-21.883-3.226-100.116-10.65-110.93-60.355-110.93-81.234 0-5.591 2.888-23.788 16.108-40.54 11.878-15.063 35.533-33.024 80.804-33.024 6.799 0 13.988 0.41 21.361 1.208 30.136 3.236 60.498 8.1 89.866 12.8 10.66 1.72 21.309 3.42 31.969 5.059 14.203 2.181 39.813 3.625 76.104 4.291 1.69 0.041 2.877 0.051 3.441 0.082 0.584-0.031 1.761-0.051 3.441-0.082 36.301-0.666 61.911-2.109 76.104-4.291 10.66-1.628 21.309-3.338 31.98-5.059 29.368-4.7 59.74-9.564 89.866-12.8 7.393-0.819 14.582-1.229 21.371-1.229 45.271 0 68.936 17.961 80.794 33.024 13.22 16.753 16.108 34.949 16.108 40.54 0.010 20.879-10.803 70.584-110.92 81.234v0zM564.941 497.715c-1.505 0-2.908 0.317-4.342 1.004-4.659 1.853-10.639 10.752-11.192 14.203 23.204 16.148 38.881 46.807 38.881 82.002 0 51.958-5.489 94.095-76.298 94.095s-76.298-42.138-76.298-94.095c0-35.185 15.677-65.853 38.861-82.002-0.543-3.43-6.646-11.919-11.172-14.203-1.434-0.676-2.836-1.004-4.342-1.004-14.909 0-33.597 32.645-38.502 45.629-8.366 22.077-18.801 60.027-21.043 115.405l-0.092 2.14c-0.563 11.663 16.998 41.482 19.323 46.592 3.205 7.025 44.718 70.298 57.047 85.289 4.362 5.294 26.47 34.662 36.209 47.616 9.748-12.964 31.846-42.322 36.219-47.616 12.329-14.991 53.821-78.254 57.027-85.289 2.335-5.11 19.907-34.929 19.333-46.592l-0.092-2.14c-2.243-55.378-12.677-93.317-21.043-115.405-4.884-12.984-23.552-45.629-38.482-45.629v0z" />
</font></defs></svg>